EESchema Schematic File Version 4
LIBS:hgterm-cache
EELAYER 29 0
EELAYER END
$Descr A4 11693 8268
encoding utf-8
Sheet 1 1
Title ""
Date ""
Rev ""
Comp ""
Comment1 ""
Comment2 ""
Comment3 ""
Comment4 ""
$EndDescr
$Comp
L ArduinoProMini:ArduinoProMini U?
U 1 1 5C75A68F
P 6500 2650
F 0 "U?" H 6825 864 50  0001 C CNN
F 1 "ArduinoProMini" V 6800 1850 50  0000 C CNN
F 2 "" H 6600 2750 50  0001 C CNN
F 3 "" H 6600 2750 50  0001 C CNN
	1    6500 2650
	0    1    1    0   
$EndComp
$Comp
L USBSerial:USBSerial U?
U 1 1 5C75AAE5
P 4750 1100
F 0 "U?" H 5550 1300 50  0001 C CNN
F 1 "USBSerial" H 5150 1300 50  0000 C CNN
F 2 "" H 4700 1600 50  0001 C CNN
F 3 "" H 4700 1600 50  0001 C CNN
	1    4750 1100
	1    0    0    -1  
$EndComp
$Comp
L PiRTC:PiRTC U?
U 1 1 5C75AD94
P 1600 2600
F 0 "U?" V 2100 2150 50  0001 L CNN
F 1 "PiRTC" V 2100 2450 50  0000 L CNN
F 2 "" H 2100 2850 50  0001 C CNN
F 3 "" H 2100 2850 50  0001 C CNN
	1    1600 2600
	-1   0    0    1   
$EndComp
$Comp
L AdafruitPowerBoost1000C:AdafruitPowerBoost1000C U?
U 1 1 5C75B448
P 2400 4300
F 0 "U?" H 2650 3800 50  0001 C CNN
F 1 "AdafruitPowerBoost1000C" H 2950 4400 50  0000 C CNN
F 2 "" H 2650 4500 50  0001 C CNN
F 3 "" H 2650 4500 50  0001 C CNN
	1    2400 4300
	1    0    0    -1  
$EndComp
$Comp
L Connector:USB_B_Micro J?
U 1 1 5C75B665
P 1350 6700
F 0 "J?" H 1405 7167 50  0001 C CNN
F 1 "ChargingPort" H 1405 7076 50  0000 C CNN
F 2 "" H 1500 6650 50  0001 C CNN
F 3 "~" H 1500 6650 50  0001 C CNN
	1    1350 6700
	1    0    0    -1  
$EndComp
$Comp
L Switch:SW_Push_45deg SW?
U 1 1 5C75B794
P 3350 6000
F 0 "SW?" H 3350 6278 50  0001 C CNN
F 1 "PowerButton" H 3550 6150 50  0000 C CNN
F 2 "" H 3350 6000 50  0001 C CNN
F 3 "" H 3350 6000 50  0001 C CNN
	1    3350 6000
	1    0    0    -1  
$EndComp
$Comp
L Connector_Generic:Conn_02x08_Odd_Even J?
U 1 1 5C75BB98
P 9200 3150
F 0 "J?" H 9250 3667 50  0001 C CNN
F 1 "Port" H 9250 3575 50  0000 C CNN
F 2 "" H 9200 3150 50  0001 C CNN
F 3 "~" H 9200 3150 50  0001 C CNN
	1    9200 3150
	1    0    0    -1  
$EndComp
$Comp
L Device:Battery_Cell BT?
U 1 1 5C75BCFD
P 2400 6750
F 0 "BT?" H 2518 6846 50  0001 L CNN
F 1 "LiPo 5000mAh" V 2250 6800 50  0000 C CNN
F 2 "" V 2400 6810 50  0001 C CNN
F 3 "~" V 2400 6810 50  0001 C CNN
	1    2400 6750
	0    -1   -1   0   
$EndComp
$Comp
L Misc:BluetoothKeyboard U?
U 1 1 5C75BEA3
P 2950 6600
F 0 "U?" H 3200 6150 50  0001 C CNN
F 1 "BluetoothKeyboard" H 3250 6700 50  0000 L CNN
F 2 "" H 3000 6900 50  0001 C CNN
F 3 "" H 3000 6900 50  0001 C CNN
	1    2950 6600
	1    0    0    -1  
$EndComp
$Comp
L Misc:RaspberryPi+Hyperpixel U?
U 1 1 5C75C0EB
P 2400 1200
F 0 "U?" H 2650 700 50  0001 C CNN
F 1 "RaspberryPi+Hyperpixel" H 3000 1373 50  0000 C CNN
F 2 "" H 2550 1400 50  0001 C CNN
F 3 "" H 2550 1400 50  0001 C CNN
	1    2400 1200
	1    0    0    -1  
$EndComp
Wire Wire Line
	2200 6750 2100 6750
Wire Wire Line
	2100 4400 2400 4400
$Comp
L power:GND #PWR?
U 1 1 5C75C2A0
P 2750 7300
F 0 "#PWR?" H 2750 7050 50  0001 C CNN
F 1 "GND" H 2755 7127 50  0000 C CNN
F 2 "" H 2750 7300 50  0001 C CNN
F 3 "" H 2750 7300 50  0001 C CNN
	1    2750 7300
	1    0    0    -1  
$EndComp
Wire Wire Line
	2950 6700 2850 6700
Wire Wire Line
	2850 6700 2850 7300
Wire Wire Line
	2850 7300 2750 7300
Wire Wire Line
	1350 7100 1350 7300
Wire Wire Line
	1350 7300 2750 7300
Connection ~ 2750 7300
Wire Wire Line
	2500 6750 2750 6750
Wire Wire Line
	2750 6750 2750 7300
Wire Wire Line
	1650 6500 2050 6500
Wire Wire Line
	2050 6500 2050 4300
Wire Wire Line
	2050 4300 2400 4300
Wire Wire Line
	2750 6750 2750 6600
Wire Wire Line
	2750 6600 2150 6600
Wire Wire Line
	2150 6600 2150 4600
Wire Wire Line
	2150 4600 2300 4600
Connection ~ 2750 6750
Wire Wire Line
	2950 6600 2850 6600
Wire Wire Line
	2850 6600 2850 6500
Wire Wire Line
	2850 6500 2200 6500
Wire Wire Line
	2200 6500 2200 4700
Wire Wire Line
	2200 4700 2400 4700
Wire Wire Line
	2200 1200 2400 1200
Connection ~ 2200 4700
Wire Wire Line
	2400 1400 2300 1400
Wire Wire Line
	2300 1400 2300 1750
Connection ~ 2300 4600
Wire Wire Line
	2300 4600 2400 4600
Wire Notes Line
	850  7700 4700 7700
Wire Notes Line
	4700 7700 4700 5700
Wire Notes Line
	4700 5700 850  5700
Wire Notes Line
	850  5700 850  7700
Wire Wire Line
	3700 1100 3700 950 
Wire Wire Line
	3700 950  2200 950 
Wire Wire Line
	2200 950  2200 1200
Connection ~ 2200 1200
Wire Wire Line
	4050 1400 4050 1750
Wire Wire Line
	4050 1750 2300 1750
Connection ~ 2300 1750
Wire Wire Line
	2300 1750 2300 2400
Wire Wire Line
	1600 2200 3700 2200
Wire Wire Line
	3700 2200 3700 1550
Wire Wire Line
	3700 1550 3600 1550
Wire Wire Line
	1600 2300 3750 2300
Wire Wire Line
	3750 2300 3750 1450
Wire Wire Line
	3750 1450 3600 1450
Wire Wire Line
	1600 2400 2300 2400
Connection ~ 2300 2400
Wire Wire Line
	2300 2400 2300 3900
Wire Wire Line
	1600 2500 2250 2500
Wire Wire Line
	2250 2500 2250 1300
Wire Wire Line
	2250 1300 2400 1300
Wire Wire Line
	1600 2600 2100 2600
Wire Wire Line
	2100 2600 2100 4400
Connection ~ 2100 4400
Wire Wire Line
	3700 1100 4750 1100
Wire Wire Line
	3600 1200 4750 1200
Wire Wire Line
	3600 1300 4750 1300
Wire Wire Line
	4050 1400 4750 1400
Wire Wire Line
	6100 3750 6100 3900
Wire Wire Line
	6100 3900 2300 3900
Connection ~ 2300 3900
Wire Wire Line
	2300 3900 2300 4600
Wire Wire Line
	2250 3950 2250 2500
Connection ~ 2250 2500
Wire Wire Line
	4800 2800 3750 2800
Wire Wire Line
	3750 2800 3750 2300
Connection ~ 3750 2300
Wire Wire Line
	4800 2900 3700 2900
Wire Wire Line
	3700 2900 3700 2200
Connection ~ 3700 2200
Wire Wire Line
	2400 4500 2350 4500
Wire Wire Line
	2350 4500 2350 4100
$Comp
L Device:R_Small R?
U 1 1 5C76835F
P 4800 4300
F 0 "R?" H 4859 4346 50  0001 L CNN
F 1 "84k5" H 4850 4300 50  0000 L CNN
F 2 "" H 4800 4300 50  0001 C CNN
F 3 "~" H 4800 4300 50  0001 C CNN
	1    4800 4300
	1    0    0    -1  
$EndComp
Wire Wire Line
	2350 4100 4800 4100
Wire Wire Line
	4800 4100 4800 4200
$Comp
L Device:R_Small R?
U 1 1 5C769484
P 4800 4600
F 0 "R?" H 4859 4646 50  0001 L CNN
F 1 "84k5" H 4850 4600 50  0000 L CNN
F 2 "" H 4800 4600 50  0001 C CNN
F 3 "~" H 4800 4600 50  0001 C CNN
	1    4800 4600
	1    0    0    -1  
$EndComp
Wire Wire Line
	4800 4400 4800 4450
$Comp
L power:GND #PWR?
U 1 1 5C76A58A
P 4800 4700
F 0 "#PWR?" H 4800 4450 50  0001 C CNN
F 1 "GND" H 4805 4527 50  0000 C CNN
F 2 "" H 4800 4700 50  0001 C CNN
F 3 "" H 4800 4700 50  0001 C CNN
	1    4800 4700
	1    0    0    -1  
$EndComp
Wire Wire Line
	4800 4450 5500 4450
Wire Wire Line
	5500 4450 5500 3750
Connection ~ 4800 4450
Wire Wire Line
	4800 4450 4800 4500
Wire Wire Line
	5800 1500 9750 1500
Wire Wire Line
	9750 1500 9750 2850
Wire Wire Line
	5800 1400 9800 1400
Wire Wire Line
	9800 1400 9800 2950
Wire Wire Line
	5800 1300 9850 1300
Wire Wire Line
	9850 1300 9850 3050
Wire Wire Line
	5800 1000 9900 1000
Wire Wire Line
	9900 1000 9900 3150
Wire Wire Line
	9900 3250 9900 3150
Connection ~ 9900 3150
Wire Wire Line
	5800 1200 10000 1200
Wire Wire Line
	10000 1200 10000 3350
Wire Wire Line
	5800 1100 10050 1100
Wire Wire Line
	10050 1100 10050 3450
Text Notes 9500 3550 0    63   ~ 0
DTR\nRX\nTX\nGND\nGND\n5V\n3.3V\nA1
Wire Wire Line
	9500 2850 9750 2850
Wire Wire Line
	9500 2950 9800 2950
Wire Wire Line
	9500 3050 9850 3050
Wire Wire Line
	9500 3150 9900 3150
Wire Wire Line
	9500 3250 9900 3250
Wire Wire Line
	9500 3350 10000 3350
Wire Wire Line
	9500 3450 10050 3450
Wire Wire Line
	6500 3200 7750 3200
Wire Wire Line
	7750 3200 7750 2850
Wire Wire Line
	6500 3100 7800 3100
Wire Wire Line
	7800 3100 7800 2950
Wire Wire Line
	5800 2200 5800 2100
Wire Wire Line
	5800 2100 8050 2100
Wire Wire Line
	8050 2100 8050 3150
Wire Wire Line
	5700 2200 5700 2050
Wire Wire Line
	5700 2050 8100 2050
Wire Wire Line
	8100 2050 8100 3250
Wire Wire Line
	5600 3750 5600 4000
Wire Wire Line
	5700 3750 5700 3850
Wire Wire Line
	5800 3750 5800 3800
Wire Wire Line
	5500 2200 5500 2000
Wire Wire Line
	5500 2000 8150 2000
Wire Wire Line
	8150 2000 8150 3350
Text Notes 8800 3550 0    63   ~ 0
DTR\nD0\nD1\nD2\nD3\nD5\nA3\nA2
Wire Wire Line
	6650 3050 6650 3000
Wire Wire Line
	6650 3000 6500 3000
$Comp
L Device:R_Small R?
U 1 1 5C7AA4A5
P 3700 4700
F 0 "R?" H 3759 4746 50  0001 L CNN
F 1 "100k" H 3750 4700 50  0000 L CNN
F 2 "" H 3700 4700 50  0001 C CNN
F 3 "~" H 3700 4700 50  0001 C CNN
	1    3700 4700
	1    0    0    -1  
$EndComp
Wire Wire Line
	3700 4450 3700 4600
$Comp
L power:GND #PWR?
U 1 1 5C7ADC32
P 3700 4800
F 0 "#PWR?" H 3700 4550 50  0001 C CNN
F 1 "GND" H 3705 4627 50  0000 C CNN
F 2 "" H 3700 4800 50  0001 C CNN
F 3 "" H 3700 4800 50  0001 C CNN
	1    3700 4800
	1    0    0    -1  
$EndComp
$Comp
L Device:D_Small_ALT D?
U 1 1 5C7ADD5D
P 3900 4450
F 0 "D?" H 3900 4655 50  0001 C CNN
F 1 "1N4148" H 3900 4550 50  0000 C CNN
F 2 "" V 3900 4450 50  0001 C CNN
F 3 "~" V 3900 4450 50  0001 C CNN
	1    3900 4450
	1    0    0    -1  
$EndComp
Wire Wire Line
	3800 4450 3700 4450
Connection ~ 3700 4450
Wire Wire Line
	4000 4450 4100 4450
$Comp
L Device:R_Small R?
U 1 1 5C7C370F
P 4300 4700
F 0 "R?" H 4359 4746 50  0001 L CNN
F 1 "100k" H 4350 4700 50  0000 L CNN
F 2 "" H 4300 4700 50  0001 C CNN
F 3 "~" H 4300 4700 50  0001 C CNN
	1    4300 4700
	1    0    0    -1  
$EndComp
$Comp
L power:GND #PWR?
U 1 1 5C7C3715
P 4300 4800
F 0 "#PWR?" H 4300 4550 50  0001 C CNN
F 1 "GND" H 4305 4627 50  0000 C CNN
F 2 "" H 4300 4800 50  0001 C CNN
F 3 "" H 4300 4800 50  0001 C CNN
	1    4300 4800
	1    0    0    -1  
$EndComp
Wire Wire Line
	4300 4600 4300 4450
Wire Wire Line
	4300 4450 4100 4450
Connection ~ 4100 4450
Wire Wire Line
	4100 4450 4100 2150
Wire Wire Line
	4100 2150 5100 2150
Wire Wire Line
	5100 2150 5100 2200
Wire Wire Line
	3700 4450 3700 3750
Wire Wire Line
	3700 3750 4050 3750
Wire Wire Line
	4050 3750 4050 2100
Wire Wire Line
	5200 2100 5200 2200
Wire Wire Line
	2100 4400 2100 6150
Wire Wire Line
	4100 4450 4100 5100
Wire Wire Line
	4100 5100 2250 5100
Wire Wire Line
	2250 5900 3250 5900
Wire Wire Line
	2250 5100 2250 5900
Wire Wire Line
	3450 6100 3450 6150
Wire Wire Line
	3450 6150 2100 6150
Connection ~ 2100 6150
Wire Wire Line
	2100 6150 2100 6750
$Comp
L Device:R_Small R?
U 1 1 5C7C3136
P 8550 2950
F 0 "R?" V 8354 2950 50  0001 C CNN
F 1 "470" V 8550 2950 39  0000 C CNN
F 2 "" H 8550 2950 50  0001 C CNN
F 3 "~" H 8550 2950 50  0001 C CNN
	1    8550 2950
	0    1    1    0   
$EndComp
$Comp
L Device:R_Small R?
U 1 1 5C7C31AD
P 8550 3050
F 0 "R?" V 8354 3050 50  0001 C CNN
F 1 "470" V 8550 3050 39  0000 C CNN
F 2 "" H 8550 3050 50  0001 C CNN
F 3 "~" H 8550 3050 50  0001 C CNN
	1    8550 3050
	0    1    1    0   
$EndComp
$Comp
L Device:R_Small R?
U 1 1 5C7C7C77
P 8550 3150
F 0 "R?" V 8354 3150 50  0001 C CNN
F 1 "470" V 8550 3150 39  0000 C CNN
F 2 "" H 8550 3150 50  0001 C CNN
F 3 "~" H 8550 3150 50  0001 C CNN
	1    8550 3150
	0    1    1    0   
$EndComp
$Comp
L Device:R_Small R?
U 1 1 5C7C7C7D
P 8550 3250
F 0 "R?" V 8354 3250 50  0001 C CNN
F 1 "470" V 8550 3250 39  0000 C CNN
F 2 "" H 8550 3250 50  0001 C CNN
F 3 "~" H 8550 3250 50  0001 C CNN
	1    8550 3250
	0    1    1    0   
$EndComp
$Comp
L Device:R_Small R?
U 1 1 5C7CC747
P 8550 3350
F 0 "R?" V 8354 3350 50  0001 C CNN
F 1 "470" V 8550 3350 39  0000 C CNN
F 2 "" H 8550 3350 50  0001 C CNN
F 3 "~" H 8550 3350 50  0001 C CNN
	1    8550 3350
	0    1    1    0   
$EndComp
$Comp
L Device:R_Small R?
U 1 1 5C7CC74D
P 8550 3450
F 0 "R?" V 8354 3450 50  0001 C CNN
F 1 "470" V 8550 3450 39  0000 C CNN
F 2 "" H 8550 3450 50  0001 C CNN
F 3 "~" H 8550 3450 50  0001 C CNN
	1    8550 3450
	0    1    1    0   
$EndComp
$Comp
L Device:R_Small R?
U 1 1 5C7D121F
P 8550 3550
F 0 "R?" V 8354 3550 50  0001 C CNN
F 1 "470" V 8550 3550 39  0000 C CNN
F 2 "" H 8550 3550 50  0001 C CNN
F 3 "~" H 8550 3550 50  0001 C CNN
	1    8550 3550
	0    1    1    0   
$EndComp
$Comp
L Device:R_Small R?
U 1 1 5C7D58E8
P 9750 3550
F 0 "R?" V 9554 3550 50  0001 C CNN
F 1 "470" V 9750 3550 39  0000 C CNN
F 2 "" H 9750 3550 50  0001 C CNN
F 3 "~" H 9750 3550 50  0001 C CNN
	1    9750 3550
	0    1    1    0   
$EndComp
Wire Wire Line
	9500 3550 9650 3550
Wire Wire Line
	9850 3550 9900 3550
Wire Wire Line
	9900 3550 9900 4000
Wire Wire Line
	5600 4000 9900 4000
Wire Wire Line
	5700 3850 8350 3850
Wire Wire Line
	8350 3850 8350 3550
Wire Wire Line
	8350 3550 8450 3550
Wire Wire Line
	5800 3800 8300 3800
Wire Wire Line
	8300 3800 8300 3450
Wire Wire Line
	8300 3450 8450 3450
Wire Wire Line
	8650 3550 9000 3550
Wire Wire Line
	8650 3450 9000 3450
Wire Wire Line
	8650 3350 9000 3350
Wire Wire Line
	8650 3250 9000 3250
Wire Wire Line
	8650 3150 9000 3150
Wire Wire Line
	8650 3050 9000 3050
Wire Wire Line
	8650 2950 9000 2950
Wire Wire Line
	7750 2850 9000 2850
Wire Wire Line
	7800 2950 8450 2950
Wire Wire Line
	6650 3050 8450 3050
Wire Wire Line
	8050 3150 8450 3150
Wire Wire Line
	8100 3250 8450 3250
Wire Wire Line
	8150 3350 8450 3350
Wire Wire Line
	2250 3950 4700 3950
Wire Wire Line
	5900 3950 5900 3750
NoConn ~ 3500 4550
Wire Wire Line
	3500 4450 3700 4450
Wire Wire Line
	2200 1200 2200 4700
$Comp
L Device:R_Small R?
U 1 1 5CB50E88
P 4500 2100
F 0 "R?" V 4304 2100 50  0001 C CNN
F 1 "1k" V 4396 2100 50  0000 C CNN
F 2 "" H 4500 2100 50  0001 C CNN
F 3 "~" H 4500 2100 50  0001 C CNN
	1    4500 2100
	0    1    1    0   
$EndComp
$Comp
L Device:R_Small R?
U 1 1 5CB5D0E5
P 4700 2500
F 0 "R?" H 4759 2546 50  0001 L CNN
F 1 "100k" H 4950 2500 50  0000 R CNN
F 2 "" H 4700 2500 50  0001 C CNN
F 3 "~" H 4700 2500 50  0001 C CNN
	1    4700 2500
	-1   0    0    1   
$EndComp
Wire Wire Line
	4050 2100 4400 2100
Wire Wire Line
	4600 2100 4700 2100
Wire Wire Line
	4700 2400 4700 2100
Connection ~ 4700 2100
Wire Wire Line
	4700 2100 5200 2100
Wire Wire Line
	4700 2600 4700 3950
Connection ~ 4700 3950
Wire Wire Line
	4700 3950 5900 3950
$EndSCHEMATC
