# Created by FreeCAD <http://www.freecadweb.org>
v 25.000000 -1.000000 4.000000
v 33.000000 -1.000000 4.000000
v 25.000000 0.500000 2.500000
v 33.000000 0.500000 2.500000
v 25.000000 -1.000000 -10.000000
v 25.000000 -2.500000 -10.000000
v 25.000000 0.500000 -8.500000
v 25.000000 0.090049 -5.328516
v 25.000000 0.500000 -5.449490
v 25.000000 -0.293302 -5.139479
v 25.000000 -0.638850 -4.887901
v 25.000000 -0.936492 -4.581139
v 25.000000 -1.177528 -4.228158
v 25.000000 -1.354913 -3.839277
v 25.000000 -1.463461 -3.425863
v 25.000000 0.090049 -0.671483
v 25.000000 0.500000 -0.550510
v 25.000000 -0.293302 -0.860521
v 25.000000 -2.500000 4.000000
v 25.000000 -0.638850 -1.112099
v 25.000000 -0.936492 -1.418861
v 25.000000 -1.177528 -1.771842
v 25.000000 -1.354913 -2.160723
v 25.000000 -1.463461 -2.574137
v 25.000000 -1.500000 -3.000000
v 33.000000 0.500000 -0.550510
v 33.000000 -2.500000 4.000000
v 33.000000 -2.500000 -10.000000
v 33.000000 -1.000000 -10.000000
v 33.000000 0.500000 -8.500000
v 33.000000 0.090049 -5.328516
v 33.000000 0.500000 -5.449490
v 33.000000 -0.293302 -5.139479
v 33.000000 -0.638850 -4.887901
v 33.000000 -0.936492 -4.581139
v 33.000000 -1.177528 -4.228158
v 33.000000 -1.354913 -3.839277
v 33.000000 -1.463461 -3.425863
v 33.000000 0.090049 -0.671483
v 33.000000 -0.293302 -0.860521
v 33.000000 -0.638850 -1.112099
v 33.000000 -0.936492 -1.418861
v 33.000000 -1.177528 -1.771842
v 33.000000 -1.354913 -2.160723
v 33.000000 -1.463461 -2.574137
v 33.000000 -1.500000 -3.000000
v 26.500000 -0.496026 -2.432632
v 26.500000 -0.316774 -2.091096
v 27.000000 -0.171260 -2.435951
v 27.000000 -0.016381 -2.189463
v 25.500000 -1.183959 -2.734819
v 25.500000 -1.183959 -3.265181
v 26.500000 -0.060996 -1.802383
v 27.000000 0.189463 -1.983619
v 25.500000 -1.057036 -2.219869
v 26.500000 0.256443 -1.583270
v 27.000000 0.435951 -1.828740
v 25.500000 -0.810565 -1.750258
v 26.500000 0.617095 -1.446493
v 27.000000 0.710723 -1.732594
v 25.500000 -0.458870 -1.353276
v 25.500000 -0.022391 -1.051997
v 27.000000 1.289277 -1.732594
v 26.750000 1.174778 -1.560572
v 26.500000 1.382905 -1.446493
v 27.000000 1.000000 -1.700000
v 26.500000 1.192859 -1.411666
v 26.000000 1.882974 -1.317634
v 26.250000 1.620559 -1.363722
v 26.000000 1.454700 -1.155210
v 26.500000 1.743557 -1.583270
v 25.500000 1.265181 -0.816040
v 25.500000 1.526495 -0.863928
v 26.000000 2.259933 -1.577830
v 26.250000 1.994113 -1.559778
v 26.500000 2.060996 -1.802383
v 25.750000 1.726940 -1.083217
v 25.500000 2.022391 -1.051997
v 25.000000 1.811749 -0.635457
v 25.250000 1.283261 -0.667134
v 25.000000 1.411487 -0.534097
v 25.000000 1.000000 -0.500000
v 26.250000 2.309894 -1.839535
v 26.500000 2.316774 -2.091096
v 26.000000 2.563669 -1.920677
v 25.750000 2.164533 -1.312883
v 25.500000 2.458870 -1.353276
v 26.250000 2.549548 -2.186734
v 26.000000 2.776531 -2.326251
v 26.500000 2.496026 -2.432632
v 25.500000 2.810565 -1.750258
v 25.750000 2.534447 -1.640599
v 26.000000 2.886147 -2.770980
v 26.250000 2.699148 -2.581198
v 26.500000 2.588334 -2.807141
v 25.500000 3.057036 -2.219869
v 25.750000 2.815185 -2.047318
v 26.250000 2.750000 -3.000000
v 26.500000 2.588334 -3.192859
v 26.000000 2.886147 -3.229020
v 25.750000 2.990431 -2.509403
v 25.500000 3.183959 -2.734819
v 26.250000 2.699148 -3.418802
v 26.000000 2.776531 -3.673749
v 26.500000 2.496026 -3.567368
v 25.750000 3.050000 -3.000000
v 25.500000 3.183959 -3.265181
v 26.250000 2.549548 -3.813266
v 26.000000 2.563669 -4.079323
v 26.500000 2.316774 -3.908904
v 25.750000 2.990431 -3.490597
v 25.500000 3.057036 -3.780131
v 25.250000 3.349572 -3.044832
v 25.000000 3.423501 -3.613714
v 25.000000 3.491461 -3.206448
v 25.000000 3.491461 -2.793552
v 26.250000 2.309894 -4.160465
v 26.000000 2.259933 -4.422171
v 26.500000 2.060996 -4.197617
v 25.750000 2.815185 -3.952682
v 25.500000 2.810565 -4.249743
v 26.250000 1.994113 -4.440222
v 26.500000 1.743557 -4.416729
v 26.000000 1.882974 -4.682366
v 25.750000 2.534447 -4.359401
v 25.500000 2.458870 -4.646724
v 26.250000 1.620559 -4.636279
v 26.000000 1.454700 -4.844790
v 26.500000 1.382905 -4.553507
v 25.750000 2.164533 -4.687117
v 25.500000 2.022391 -4.948003
v 26.250000 1.210939 -4.737240
v 26.000000 1.000000 -4.900000
v 26.500000 1.000000 -4.600000
v 25.750000 1.726940 -4.916783
v 25.500000 1.526495 -5.136072
v 26.250000 0.789061 -4.737240
v 26.000000 0.545300 -4.844790
v 26.500000 0.617095 -4.553507
v 25.750000 1.247100 -5.035053
v 25.500000 1.000000 -5.200000
v 26.250000 0.379441 -4.636279
v 26.000000 0.117026 -4.682366
v 26.500000 0.256443 -4.416729
v 25.750000 0.752900 -5.035053
v 25.500000 0.473506 -5.136072
v 26.000000 -0.259933 -4.422171
v 26.250000 0.005887 -4.440222
v 26.500000 -0.060996 -4.197617
v 25.500000 -0.022391 -4.948003
v 25.750000 0.273060 -4.916783
v 26.000000 -0.563669 -4.079323
v 26.250000 -0.309894 -4.160465
v 26.500000 -0.316774 -3.908904
v 25.750000 -0.164533 -4.687117
v 25.500000 -0.458870 -4.646724
v 26.250000 -0.549548 -3.813266
v 26.500000 -0.496026 -3.567368
v 26.000000 -0.776531 -3.673749
v 25.750000 -0.534447 -4.359401
v 25.500000 -0.810565 -4.249743
v 26.000000 -0.886147 -3.229020
v 26.250000 -0.699148 -3.418802
v 26.500000 -0.588334 -3.192859
v 25.500000 -1.057036 -3.780131
v 25.750000 -0.815185 -3.952682
v 26.250000 -0.750000 -3.000000
v 26.500000 -0.588334 -2.807141
v 26.000000 -0.886147 -2.770980
v 25.750000 -0.990431 -3.490597
v 26.250000 -0.699148 -2.581198
v 26.000000 -0.776531 -2.326251
v 25.750000 -1.050000 -3.000000
v 26.000000 -0.563669 -1.920677
v 26.250000 -0.549548 -2.186734
v 25.750000 -0.990431 -2.509403
v 26.000000 -0.259933 -1.577830
v 26.250000 -0.309894 -1.839535
v 25.750000 -0.815185 -2.047318
v 26.250000 0.005887 -1.559778
v 26.000000 0.117026 -1.317634
v 25.750000 -0.534447 -1.640599
v 26.750000 0.825222 -1.560572
v 26.250000 0.379441 -1.363722
v 26.000000 0.545300 -1.155210
v 25.750000 -0.164533 -1.312883
v 26.500000 0.807141 -1.411666
v 25.750000 0.273060 -1.083217
v 25.500000 0.473506 -0.863928
v 25.500000 0.734819 -0.816040
v 25.250000 0.716739 -0.667134
v 25.000000 0.832328 -0.505629
v 25.000000 0.665410 -0.522491
v 26.250000 1.105662 -1.253193
v 26.250000 0.894338 -1.253193
v 25.125000 0.407840 -0.648411
v 26.250000 1.367292 -1.288978
v 26.250000 0.632708 -1.288978
v 25.312500 0.174548 -0.839841
v 27.000000 1.564049 -1.828740
v 27.000000 1.810537 -1.983619
v 27.000000 2.016381 -2.189463
v 27.000000 2.171260 -2.435951
v 25.000000 2.535532 -1.027149
v 25.000000 2.189868 -0.801316
v 27.000000 2.267406 -2.710723
v 25.000000 2.839310 -1.306796
v 27.000000 2.300000 -3.000000
v 25.000000 3.289433 -1.995761
v 25.000000 3.092916 -1.632630
v 27.000000 2.267406 -3.289277
v 25.000000 3.423501 -2.386286
v 27.000000 2.171260 -3.564049
v 27.000000 2.016381 -3.810537
v 27.000000 1.810537 -4.016381
v 25.000000 3.289433 -4.004239
v 27.000000 1.564049 -4.171259
v 25.000000 2.839310 -4.693204
v 25.000000 3.092916 -4.367371
v 27.000000 1.289277 -4.267406
v 25.000000 2.535532 -4.972851
v 27.000000 1.000000 -4.300000
v 27.000000 0.710723 -4.267406
v 25.000000 1.811749 -5.364543
v 25.000000 2.189868 -5.198684
v 27.000000 0.435951 -4.171259
v 25.000000 1.411487 -5.465903
v 27.000000 0.189463 -4.016381
v 25.000000 1.000000 -5.500000
v 25.000000 0.665410 -5.477509
v 25.000000 0.832328 -5.494371
v 27.000000 -0.016381 -3.810537
v 27.000000 -0.171260 -3.564049
v 27.000000 -0.267406 -3.289277
v 27.000000 -0.300000 -3.000000
v 27.000000 -0.267406 -2.710723
v 33.000000 1.000000 -5.500000
v 33.000000 1.415926 -5.465158
v 33.000000 1.820258 -5.361605
v 33.000000 2.201728 -5.192225
v 33.000000 2.549701 -4.961741
v 33.000000 2.854479 -4.676577
v 33.000000 3.107566 -4.344681
v 33.000000 3.301908 -3.975304
v 33.000000 3.432089 -3.578742
v 33.000000 3.494479 -3.166049
v 33.000000 3.487340 -2.748728
v 33.000000 3.410871 -2.338410
v 33.000000 3.267202 -1.946533
v 33.000000 3.060340 -1.584020
v 33.000000 2.796048 -1.260974
v 33.000000 2.481695 -0.986401
v 33.000000 2.126042 -0.767954
v 33.000000 1.739003 -0.611721
v 33.000000 1.331365 -0.522058
v 33.000000 0.914491 -0.501463
v 33.000000 0.500000 -4.200000
v 33.000000 0.234120 -4.050442
v 33.000000 0.010413 -3.843041
v 33.000000 -0.158802 -3.589218
v 33.000000 -0.264208 -3.302950
v 33.000000 -0.300000 -3.000000
v 33.000000 -0.264208 -2.697050
v 33.000000 -0.158802 -2.410782
v 33.000000 0.500000 -1.800000
v 33.000000 0.010413 -2.156959
v 33.000000 0.234120 -1.949558
v 33.000000 0.665410 -5.477509
v 33.000000 0.832328 -5.494371
v 33.000000 1.000000 -4.300000
v 33.000000 1.303655 -4.264039
v 33.000000 1.590511 -4.158144
v 33.000000 1.844696 -3.988174
v 33.000000 2.052148 -3.763534
v 33.000000 2.201390 -3.496651
v 33.000000 0.661784 -4.255233
v 33.000000 0.829417 -4.288760
v 33.000000 2.284165 -3.202290
v 33.000000 2.295892 -2.896738
v 33.000000 2.235924 -2.596899
v 33.000000 2.107579 -2.319361
v 33.000000 1.917956 -2.079480
v 33.000000 1.677547 -1.890527
v 33.000000 1.399652 -1.762956
v 33.000000 1.099647 -1.703825
v 33.000000 0.794128 -1.716405
vn -0.000000 0.707107 0.707107
vn -0.000000 0.707107 0.707107
vn -1.000000 0.000000 0.000000
vn -1.000000 0.000000 0.000000
vn -1.000000 0.000000 0.000000
vn -1.000000 0.000000 0.000000
vn -1.000000 0.000000 0.000000
vn -1.000000 0.000000 0.000000
vn -1.000000 0.000000 0.000000
vn -1.000000 0.000000 0.000000
vn -1.000000 0.000000 0.000000
vn -1.000000 0.000000 0.000000
vn -1.000000 0.000000 0.000000
vn -1.000000 0.000000 0.000000
vn -1.000000 0.000000 0.000000
vn -1.000000 0.000000 0.000000
vn -1.000000 0.000000 0.000000
vn -1.000000 0.000000 0.000000
vn -1.000000 0.000000 0.000000
vn -1.000000 0.000000 0.000000
vn -1.000000 0.000000 0.000000
vn -1.000000 0.000000 0.000000
vn -1.000000 0.000000 0.000000
vn 0.000000 1.000000 0.000000
vn 0.000000 1.000000 0.000000
vn 0.000000 0.000000 1.000000
vn 0.000000 0.000000 1.000000
vn 1.000000 0.000000 0.000000
vn 1.000000 0.000000 0.000000
vn 1.000000 0.000000 0.000000
vn 1.000000 0.000000 0.000000
vn 1.000000 0.000000 0.000000
vn 1.000000 0.000000 0.000000
vn 1.000000 0.000000 0.000000
vn 1.000000 0.000000 0.000000
vn 1.000000 0.000000 0.000000
vn 1.000000 0.000000 0.000000
vn 1.000000 0.000000 0.000000
vn 1.000000 -0.000000 0.000000
vn 1.000000 0.000000 0.000000
vn 1.000000 0.000000 0.000000
vn 1.000000 0.000000 0.000000
vn 1.000000 0.000000 0.000000
vn 1.000000 0.000000 0.000000
vn 1.000000 0.000000 0.000000
vn 1.000000 0.000000 0.000000
vn 1.000000 0.000000 0.000000
vn 1.000000 0.000000 0.000000
vn -0.500563 0.766539 -0.402311
vn -0.522851 0.721768 -0.453517
vn -0.534296 0.845297 0.000000
vn -0.504577 0.860206 -0.073805
vn -0.501817 0.647442 -0.573584
vn -0.521076 0.603523 -0.603523
vn -0.526735 0.825329 -0.203425
vn -0.508864 0.783215 -0.357257
vn -0.518429 0.827086 -0.217164
vn -0.503568 0.490783 -0.711021
vn -0.518701 0.454864 -0.723912
vn -0.502851 0.713822 -0.487440
vn -0.532916 0.749245 -0.393234
vn -0.505809 0.305898 -0.806588
vn -0.515716 0.282970 -0.808681
vn -0.515642 0.504302 -0.692671
vn -0.510846 0.616983 -0.598639
vn -0.531842 0.633872 -0.561561
vn -0.528749 0.482161 -0.698531
vn -0.512151 -0.151826 -0.845370
vn -0.534537 -0.094626 -0.839831
vn -0.513805 -0.154642 -0.843854
vn -0.513805 -0.051799 -0.856342
vn -0.478265 -0.311419 -0.821146
vn -0.543017 -0.297769 -0.785154
vn -0.513805 -0.154642 -0.843854
vn -0.478265 -0.498883 -0.722757
vn -0.545600 -0.389459 -0.742053
vn -0.481220 -0.407376 -0.776191
vn -0.543017 -0.477016 -0.691077
vn -0.548167 -0.296581 -0.782019
vn -0.513805 -0.255230 -0.819062
vn -0.472306 -0.312561 -0.824156
vn -0.540114 -0.206599 -0.815840
vn -0.496962 -0.071660 -0.864808
vn -0.492700 -0.182066 -0.850940
vn -0.513805 -0.051799 -0.856342
vn -0.513805 -0.154642 -0.843854
vn -0.543017 -0.628541 -0.556838
vn -0.545600 -0.555727 -0.627286
vn -0.478265 -0.657354 -0.582365
vn -0.481220 -0.581293 -0.656144
vn -0.548167 -0.475112 -0.688318
vn -0.475294 -0.408876 -0.779048
vn -0.550719 -0.387900 -0.739082
vn -0.472306 -0.500712 -0.725406
vn -0.481220 -0.721427 -0.497965
vn -0.545600 -0.689698 -0.476064
vn -0.478265 -0.777622 -0.408127
vn -0.543017 -0.743536 -0.390238
vn -0.472306 -0.659763 -0.584499
vn -0.475294 -0.583433 -0.658560
vn -0.548167 -0.626031 -0.554616
vn -0.550719 -0.553503 -0.624775
vn -0.478265 -0.852696 -0.210171
vn -0.543017 -0.815321 -0.200958
vn -0.481220 -0.819635 -0.310846
vn -0.545599 -0.783587 -0.297175
vn -0.472306 -0.780472 -0.409623
vn -0.548167 -0.740568 -0.388680
vn -0.550718 -0.686937 -0.474159
vn -0.475293 -0.724084 -0.499799
vn -0.543017 -0.839722 -0.000000
vn -0.478265 -0.878216 0.000000
vn -0.545599 -0.831936 -0.101015
vn -0.481220 -0.870208 -0.105662
vn -0.548167 -0.812065 -0.200156
vn -0.550718 -0.780450 -0.295986
vn -0.472306 -0.855822 -0.210941
vn -0.475294 -0.822652 -0.311991
vn -0.545599 -0.831936 0.101015
vn -0.478265 -0.852696 0.210171
vn -0.481220 -0.870208 0.105662
vn -0.543017 -0.815321 0.200958
vn -0.550718 -0.828605 -0.100611
vn -0.548167 -0.836369 -0.000000
vn -0.472306 -0.881435 0.000000
vn -0.475294 -0.873412 -0.106051
vn -0.545599 -0.783587 0.297175
vn -0.481220 -0.819635 0.310846
vn -0.478265 -0.777622 0.408127
vn -0.543017 -0.743536 0.390238
vn -0.548167 -0.812065 0.200156
vn -0.475294 -0.873412 0.106051
vn -0.550718 -0.828605 0.100611
vn -0.472306 -0.855822 0.210941
vn -0.552265 -0.833669 -0.000000
vn -0.554443 -0.820872 0.136979
vn -0.493598 -0.869690 0.000000
vn -0.520445 -0.853134 -0.036059
vn -0.486153 -0.868036 0.100839
vn -0.545599 -0.689698 0.476064
vn -0.481220 -0.721427 0.497965
vn -0.478265 -0.657354 0.582364
vn -0.543017 -0.628540 0.556838
vn -0.548167 -0.740568 0.388680
vn -0.475294 -0.822652 0.311991
vn -0.550718 -0.780450 0.295986
vn -0.472306 -0.780471 0.409623
vn -0.481221 -0.581293 0.656144
vn -0.545600 -0.555727 0.627286
vn -0.543017 -0.477016 0.691077
vn -0.478265 -0.498883 0.722757
vn -0.550719 -0.686937 0.474159
vn -0.472307 -0.659763 0.584499
vn -0.548166 -0.626032 0.554615
vn -0.475294 -0.724083 0.499799
vn -0.481221 -0.407376 0.776190
vn -0.478265 -0.311420 0.821146
vn -0.545599 -0.389460 0.742053
vn -0.543018 -0.297769 0.785153
vn -0.550719 -0.553503 0.624775
vn -0.475293 -0.583434 0.658560
vn -0.472306 -0.500712 0.725406
vn -0.548167 -0.475111 0.688318
vn -0.545600 -0.200557 0.813694
vn -0.481220 -0.209783 0.851128
vn -0.478266 -0.105857 0.871812
vn -0.543017 -0.101217 0.833599
vn -0.548167 -0.296581 0.782018
vn -0.475294 -0.408876 0.779048
vn -0.550718 -0.387900 0.739082
vn -0.472306 -0.312561 0.824156
vn -0.481220 0.000000 0.876600
vn -0.545600 0.000000 0.838045
vn -0.478266 0.105857 0.871812
vn -0.543017 0.101217 0.833599
vn -0.550719 -0.199755 0.810436
vn -0.475294 -0.210556 0.854261
vn -0.548167 -0.100813 0.830271
vn -0.472306 -0.106245 0.875008
vn -0.545600 0.200557 0.813694
vn -0.481220 0.209783 0.851128
vn -0.478265 0.311420 0.821146
vn -0.543018 0.297770 0.785153
vn -0.475294 0.000000 0.879827
vn -0.550718 0.000000 0.834691
vn -0.548167 0.100813 0.830271
vn -0.472306 0.106245 0.875008
vn -0.478265 0.498883 0.722757
vn -0.545599 0.389460 0.742053
vn -0.481221 0.407376 0.776190
vn -0.543017 0.477016 0.691077
vn -0.472306 0.312561 0.824155
vn -0.475294 0.210556 0.854261
vn -0.550719 0.199755 0.810436
vn -0.548167 0.296581 0.782018
vn -0.478265 0.657354 0.582364
vn -0.481221 0.581293 0.656144
vn -0.543017 0.628540 0.556838
vn -0.545600 0.555727 0.627286
vn -0.548167 0.475111 0.688318
vn -0.475294 0.408876 0.779048
vn -0.550718 0.387900 0.739082
vn -0.472306 0.500712 0.725407
vn -0.481220 0.721428 0.497965
vn -0.545599 0.689699 0.476064
vn -0.543017 0.743537 0.390238
vn -0.478265 0.777621 0.408127
vn -0.548166 0.626032 0.554615
vn -0.475293 0.583434 0.658560
vn -0.550719 0.553503 0.624775
vn -0.472307 0.659763 0.584499
vn -0.478265 0.852696 0.210171
vn -0.481220 0.819635 0.310847
vn -0.545600 0.783587 0.297175
vn -0.543017 0.815321 0.200959
vn -0.472306 0.780471 0.409623
vn -0.475294 0.724083 0.499799
vn -0.550719 0.686937 0.474159
vn -0.548167 0.740568 0.388680
vn -0.543017 0.839722 0.000000
vn -0.545600 0.831936 0.101015
vn -0.478265 0.878216 0.000000
vn -0.481220 0.870208 0.105662
vn -0.548167 0.812066 0.200156
vn -0.550719 0.780450 0.295985
vn -0.472306 0.855822 0.210941
vn -0.475294 0.822653 0.311991
vn -0.543017 0.815321 -0.200959
vn -0.481220 0.870208 -0.105662
vn -0.545600 0.831936 -0.101015
vn -0.478265 0.852696 -0.210171
vn -0.548167 0.836369 0.000000
vn -0.472306 0.881435 0.000000
vn -0.475294 0.873412 0.106051
vn -0.550718 0.828605 0.100611
vn -0.478265 0.777621 -0.408127
vn -0.481220 0.819635 -0.310847
vn -0.545600 0.783587 -0.297175
vn -0.543017 0.743537 -0.390238
vn -0.475294 0.873412 -0.106051
vn -0.550718 0.828605 -0.100611
vn -0.472306 0.855822 -0.210941
vn -0.548167 0.812066 -0.200156
vn -0.478265 0.657354 -0.582365
vn -0.545600 0.689698 -0.476064
vn -0.543017 0.628541 -0.556838
vn -0.481220 0.721428 -0.497965
vn -0.548167 0.740568 -0.388680
vn -0.472306 0.780472 -0.409623
vn -0.550719 0.780450 -0.295985
vn -0.475294 0.822653 -0.311991
vn -0.545600 0.555727 -0.627286
vn -0.478265 0.498883 -0.722757
vn -0.543017 0.477016 -0.691077
vn -0.481220 0.581293 -0.656144
vn -0.550718 0.686937 -0.474159
vn -0.548167 0.626031 -0.554615
vn -0.472306 0.659763 -0.584499
vn -0.475294 0.724084 -0.499799
vn -0.534537 0.094626 -0.839831
vn -0.512152 0.151825 -0.845370
vn -0.481220 0.407376 -0.776191
vn -0.545600 0.389459 -0.742053
vn -0.543017 0.297769 -0.785153
vn -0.478265 0.311419 -0.821146
vn -0.475294 0.583433 -0.658560
vn -0.550718 0.553503 -0.624775
vn -0.472306 0.500712 -0.725406
vn -0.548167 0.475112 -0.688318
vn -0.513805 0.051799 -0.856342
vn -0.513805 0.154642 -0.843854
vn -0.550719 0.387900 -0.739082
vn -0.475294 0.408876 -0.779048
vn -0.513805 0.255230 -0.819062
vn -0.472306 0.312561 -0.824156
vn -0.548167 0.296581 -0.782019
vn -0.513805 0.154642 -0.843854
vn -0.513805 0.154642 -0.843854
vn -0.513805 0.051799 -0.856342
vn -0.533124 0.028387 -0.845561
vn -0.512143 0.086327 -0.854551
vn -0.517567 -0.066460 -0.853058
vn -0.511746 -0.056775 -0.857259
vn -0.520327 -0.136021 -0.843065
vn -0.514323 -0.025902 -0.857205
vn -0.520327 0.136021 -0.843065
vn -0.511746 0.056775 -0.857259
vn -0.514323 0.025902 -0.857205
vn -0.517567 0.066460 -0.853058
vn -0.476857 0.248775 -0.843041
vn -0.518675 0.158970 -0.840062
vn -0.544440 0.140089 -0.827019
vn -0.512589 0.156250 -0.844298
vn -0.500106 -0.117352 -0.857976
vn -0.519815 -0.153988 -0.840286
vn -0.505983 -0.244143 -0.827270
vn -0.502222 -0.117186 -0.856762
vn -0.522096 -0.241410 -0.818008
vn -0.505983 0.244143 -0.827270
vn -0.522096 0.241410 -0.818008
vn -0.519815 0.153988 -0.840286
vn -0.500106 0.117352 -0.857976
vn -0.502222 0.117186 -0.856762
vn -0.516245 0.378778 -0.768127
vn -0.499830 0.368507 -0.783819
vn -0.514983 0.257103 -0.817735
vn -0.511578 0.260667 -0.818743
vn -0.565414 0.292481 -0.771208
vn -0.515716 -0.282970 -0.808681
vn -0.505809 -0.305898 -0.806588
vn -0.518701 -0.454864 -0.723912
vn -0.503568 -0.490783 -0.711021
vn -0.521076 -0.603522 -0.603523
vn -0.501817 -0.647442 -0.573583
vn -0.522851 -0.721769 -0.453517
vn -0.516337 -0.468398 -0.716937
vn -0.510497 -0.345410 -0.787455
vn -0.532767 -0.300089 -0.791269
vn -0.524030 -0.803905 -0.281298
vn -0.500563 -0.766539 -0.402311
vn -0.504122 -0.584922 -0.635395
vn -0.529324 -0.481958 -0.698236
vn -0.499809 -0.840968 -0.207280
vn -0.524619 -0.845984 -0.095320
vn -0.533746 -0.632974 -0.560766
vn -0.519894 -0.751273 -0.406569
vn -0.508230 -0.679624 -0.528973
vn -0.499557 -0.866281 -0.000000
vn -0.524619 -0.845984 0.095320
vn -0.505038 -0.816332 -0.280247
vn -0.526849 -0.752601 -0.394996
vn -0.524030 -0.803905 0.281298
vn -0.499809 -0.840968 0.207280
vn -0.506409 -0.850533 -0.141929
vn -0.534235 -0.820772 -0.202302
vn -0.522851 -0.721769 0.453517
vn -0.500563 -0.766539 0.402311
vn -0.501817 -0.647442 0.573584
vn -0.521076 -0.603522 0.603523
vn -0.505038 -0.816332 0.280247
vn -0.534235 -0.820772 0.202302
vn -0.503568 -0.490783 0.711022
vn -0.518701 -0.454864 0.723912
vn -0.508230 -0.679624 0.528973
vn -0.519894 -0.751273 0.406568
vn -0.526849 -0.752601 0.394996
vn -0.505809 -0.305899 0.806588
vn -0.515716 -0.282971 0.808681
vn -0.504122 -0.584922 0.635395
vn -0.533746 -0.632974 0.560766
vn -0.508532 -0.103787 0.854765
vn -0.512111 0.096169 0.853519
vn -0.512111 -0.096169 0.853519
vn -0.510497 -0.345410 0.787455
vn -0.516337 -0.468398 0.716937
vn -0.529324 -0.481957 0.698236
vn -0.508532 0.103787 0.854765
vn -0.515716 0.282971 0.808681
vn -0.503663 -0.212075 0.837465
vn -0.532767 -0.300089 0.791269
vn -0.505809 0.305899 0.806588
vn -0.518701 0.454864 0.723912
vn -0.513202 -0.070875 0.855336
vn -0.526612 0.085443 0.845801
vn -0.514283 0.028776 0.857138
vn -0.531294 -0.102117 0.841010
vn -0.521076 0.603522 0.603523
vn -0.503568 0.490783 0.711022
vn -0.520249 0.142632 0.842019
vn -0.534025 0.101909 0.839304
vn -0.505720 0.244166 0.827424
vn -0.522851 0.721768 0.453517
vn -0.501817 0.647442 0.573584
vn -0.534144 0.299781 0.790457
vn -0.503716 0.382063 0.774789
vn -0.524030 0.803905 0.281299
vn -0.500563 0.766539 0.402311
vn -0.510846 0.616983 0.598639
vn -0.515642 0.504302 0.692671
vn -0.528749 0.482161 0.698531
vn -0.524619 0.845984 0.095320
vn -0.499809 0.840968 0.207280
vn -0.502851 0.713822 0.487441
vn -0.531842 0.633872 0.561561
vn -0.524619 0.845984 -0.095320
vn -0.499557 0.866281 0.000000
vn -0.518429 0.827086 0.217164
vn -0.508864 0.783215 0.357257
vn -0.532916 0.749245 0.393234
vn -0.524030 0.803905 -0.281299
vn -0.499809 0.840968 -0.207280
vn -0.504577 0.860206 0.073805
vn -0.526735 0.825329 0.203425
vn 0.000000 -1.000000 0.000000
vn 0.000000 -1.000000 0.000000
vn 0.000000 1.000000 0.000000
vn 0.000000 1.000000 0.000000
vn 0.000000 0.000000 -1.000000
vn 0.000000 0.000000 -1.000000
vn 0.000000 0.707107 -0.707107
vn 0.000000 0.707107 -0.707107
vn 0.000000 0.082579 -0.996585
vn -0.000046 0.245486 -0.969400
vn 0.000046 0.083476 -0.996510
vn -0.000091 0.401695 -0.915773
vn 0.000092 0.248103 -0.968734
vn -0.000135 0.546948 -0.837167
vn 0.000136 0.405814 -0.913956
vn -0.000178 0.677282 -0.735724
vn 0.000180 0.552213 -0.833703
vn -0.000220 0.789140 -0.614213
vn 0.000222 0.683220 -0.730212
vn -0.000261 0.879474 -0.475947
vn 0.000264 0.795184 -0.606368
vn -0.000301 0.945817 -0.324700
vn 0.000304 0.884984 -0.465622
vn -0.000339 0.986361 -0.164594
vn 0.000343 0.950116 -0.311898
vn -0.000377 1.000000 0.000000
vn 0.000382 0.988765 -0.149480
vn -0.000414 0.986361 0.164594
vn 0.000419 0.999854 0.017104
vn -0.000450 0.945817 0.324700
vn 0.000456 0.983073 0.183212
vn -0.000485 0.879474 0.475947
vn 0.000491 0.938892 0.344213
vn -0.000519 0.789140 0.614213
vn 0.000525 0.868540 0.495619
vn 0.000559 0.773979 0.633211
vn -0.000552 0.677282 0.735724
vn 0.000591 0.657845 0.753153
vn -0.000583 0.546948 0.837166
vn 0.000622 0.523374 0.852103
vn -0.000614 0.401695 0.915773
vn 0.000652 0.374315 0.927301
vn -0.000644 0.245486 0.969400
vn 0.000682 0.214823 0.976653
vn -0.000673 0.082579 0.996584
vn 0.000710 0.049343 0.998782
vn -0.000176 -0.033553 0.999437
vn 0.000514 -0.100509 0.994936
vn 0.001048 -0.117512 0.993071
vn 0.000000 -0.167012 0.985955
vn 1.000000 0.000000 0.000000
vn 1.000000 0.000000 0.000000
vn 1.000000 0.000000 0.000000
vn 1.000000 -0.000000 0.000000
vn 1.000000 0.000000 0.000000
vn 1.000000 -0.000000 0.000000
vn 1.000000 0.000000 0.000000
vn 1.000000 -0.000000 0.000000
vn 1.000000 0.000000 0.000000
vn 1.000000 -0.000000 0.000000
vn 1.000000 0.000000 0.000000
vn 1.000000 -0.000000 0.000000
vn 1.000000 -0.000000 0.000000
vn 1.000000 0.000000 0.000000
vn 1.000000 0.000000 0.000000
vn 1.000000 0.000000 0.000000
vn 1.000000 0.000000 0.000000
vn 1.000000 -0.000000 0.000000
vn 1.000000 0.000000 0.000000
vn 1.000000 0.000000 0.000000
vn 1.000000 0.000000 0.000000
vn 1.000000 -0.000000 0.000000
vn 1.000000 0.000000 0.000000
vn 1.000000 0.000000 0.000000
vn 1.000000 -0.000000 0.000000
vn 1.000000 0.000000 0.000000
vn -0.000000 -0.167014 -0.985955
vn -0.000000 -0.100508 -0.994936
vn -0.000000 -0.167014 -0.985955
vn -0.000000 -0.100508 -0.994936
vn -0.000000 -0.033553 -0.999437
vn 0.000000 -0.033553 -0.999437
vn 0.000000 0.993712 -0.111964
vn -0.000000 0.993712 0.111964
vn -0.000262 0.993093 -0.117330
vn 0.000000 -0.111965 0.993712
vn 0.000249 0.943883 0.330279
vn -0.000262 0.993093 0.117330
vn 0.000262 -0.330280 0.943883
vn -0.000276 -0.117607 0.993060
vn 0.000474 0.846724 0.532032
vn -0.000499 0.938408 0.345528
vn 0.000496 -0.532032 0.846724
vn -0.000523 -0.346313 0.938119
vn 0.000673 0.707106 0.707107
vn -0.000711 0.832050 0.554700
vn 0.000702 -0.707106 0.707107
vn -0.000743 -0.555860 0.831275
vn 0.000847 0.532032 0.846724
vn -0.000897 0.679875 0.733327
vn 0.000880 -0.846724 0.532032
vn 0.000996 0.330280 0.943883
vn -0.000935 -0.734654 0.678442
vn -0.001059 0.490262 0.871574
vn 0.001030 -0.943883 0.330279
vn -0.001100 -0.872802 0.488073
vn 0.000715 0.323092 0.946367
vn 0.001322 0.111964 0.993711
vn -0.000390 0.196115 0.980581
vn 0.001152 -0.993712 0.111964
vn -0.001236 -0.962662 0.270702
vn 0.000000 0.065752 0.997836
vn 0.001247 -0.993711 -0.111964
vn -0.001344 -0.999263 0.038353
vn 0.001313 -0.943883 -0.330278
vn -0.001425 -0.980580 -0.196115
vn 0.001352 -0.846724 -0.532031
vn -0.001477 -0.907645 -0.419736
vn -0.001502 -0.784495 -0.620133
vn 0.001362 -0.707106 -0.707107
vn -0.001498 -0.617942 -0.786222
vn 0.001345 -0.532032 -0.846723
vn -0.001467 -0.417202 -0.908813
vn 0.001299 -0.330279 -0.943882
vn -0.001407 -0.193380 -0.981123
vn 0.001226 -0.111964 -0.993711
vn 0.001125 0.111964 -0.993712
vn -0.001320 0.041141 -0.999152
vn 0.000996 0.330279 -0.943883
vn -0.001205 0.273386 -0.961904
vn 0.000847 0.532032 -0.846724
vn -0.001059 0.490263 -0.871574
vn 0.000673 0.707106 -0.707107
vn -0.000897 0.679875 -0.733327
vn 0.000474 0.846724 -0.532032
vn -0.000711 0.832050 -0.554700
vn 0.000249 0.943883 -0.330279
vn -0.000499 0.938408 -0.345528
vn 1.000000 0.000000 -0.000000
vn 1.000000 0.000000 0.000000
vn 1.000000 0.000000 -0.000000
vn 1.000000 0.000000 0.000000
vn 1.000000 0.000000 0.000000
vn 1.000000 0.000000 -0.000000
vn 1.000000 0.000000 -0.000000
vn 1.000000 0.000000 -0.000000
vn 1.000000 0.000000 0.000000
vn 1.000000 0.000000 0.000000
vn 1.000000 0.000000 0.000000
vn 1.000000 0.000000 0.000000
vn 1.000000 0.000000 0.000000
vn 1.000000 0.000000 -0.000000
vn 1.000000 0.000000 0.000000
vn 1.000000 0.000000 0.000000
vn 1.000000 0.000000 -0.000000
vn 1.000000 0.000000 0.000000
vn 1.000000 0.000000 0.000000
vn 1.000000 0.000000 0.000000
vn 1.000000 0.000000 -0.000000
vn 1.000000 0.000000 0.000000
vn 1.000000 0.000000 -0.000000
vn 1.000000 0.000000 0.000000
vn 1.000000 0.000000 -0.000000
vn 1.000000 0.000000 0.000000
vn 1.000000 0.000000 0.000000
vn 1.000000 0.000000 0.000000
vn 1.000000 0.000000 0.000000
vn 1.000000 0.000000 -0.000000
vn 1.000000 0.000000 0.000000
vn 1.000000 0.000000 0.000000
vn 1.000000 0.000000 0.000000
vn 1.000000 0.000000 -0.000000
vn 1.000000 0.000000 0.000000
vn 1.000000 0.000000 0.000000
vn 1.000000 0.000000 0.000000
vn 1.000000 0.000000 0.000000
vn 1.000000 0.000000 0.000000
vn 1.000000 0.000000 0.000000
vn 1.000000 0.000000 0.000000
f 1//1 2//1 3//1
f 3//2 2//2 4//2
f 5//3 6//3 7//3
f 7//4 8//4 9//4
f 6//5 10//5 7//5
f 7//6 10//6 8//6
f 6//7 11//7 10//7
f 6//8 12//8 11//8
f 6//9 13//9 12//9
f 6//10 14//10 13//10
f 6//11 15//11 14//11
f 16//12 3//12 17//12
f 18//13 3//13 16//13
f 3//14 19//14 1//14
f 20//15 19//15 18//15
f 21//16 19//16 20//16
f 22//17 19//17 21//17
f 23//18 19//18 22//18
f 24//19 19//19 23//19
f 18//20 19//20 3//20
f 6//21 19//21 25//21
f 6//22 25//22 15//22
f 25//23 19//23 24//23
f 4//24 17//24 3//24
f 4//25 26//25 17//25
f 2//26 1//26 19//26
f 2//27 19//27 27//27
f 28//28 29//28 30//28
f 31//29 30//29 32//29
f 33//30 28//30 30//30
f 33//31 30//31 31//31
f 34//32 28//32 33//32
f 35//33 28//33 34//33
f 36//34 28//34 35//34
f 37//35 28//35 36//35
f 38//36 28//36 37//36
f 4//37 39//37 26//37
f 4//38 40//38 39//38
f 27//39 4//39 2//39
f 27//40 41//40 40//40
f 27//41 42//41 41//41
f 27//42 43//42 42//42
f 27//43 44//43 43//43
f 27//44 45//44 44//44
f 27//45 40//45 4//45
f 27//46 28//46 46//46
f 46//47 28//47 38//47
f 27//48 46//48 45//48
f 47//49 48//49 49//49
f 49//50 48//50 50//50
f 25//51 51//51 52//51
f 24//52 51//52 25//52
f 48//53 53//53 50//53
f 50//54 53//54 54//54
f 24//55 55//55 51//55
f 22//56 55//56 23//56
f 23//57 55//57 24//57
f 53//58 56//58 54//58
f 54//59 56//59 57//59
f 21//60 58//60 22//60
f 22//61 58//61 55//61
f 56//62 59//62 57//62
f 57//63 59//63 60//63
f 18//64 61//64 20//64
f 20//65 61//65 21//65
f 21//66 61//66 58//66
f 18//67 62//67 61//67
f 63//68 64//68 65//68
f 66//69 64//69 63//69
f 64//70 67//70 65//70
f 66//71 67//71 64//71
f 68//72 69//72 70//72
f 65//73 69//73 71//73
f 70//74 72//74 73//74
f 74//75 75//75 68//75
f 68//76 75//76 69//76
f 69//77 75//77 71//77
f 71//78 75//78 76//78
f 70//79 77//79 68//79
f 73//80 77//80 70//80
f 78//81 77//81 73//81
f 79//82 80//82 81//82
f 81//83 80//83 82//83
f 73//84 80//84 79//84
f 82//85 80//85 72//85
f 72//86 80//86 73//86
f 76//87 83//87 84//87
f 74//88 83//88 75//88
f 85//89 83//89 74//89
f 75//90 83//90 76//90
f 68//91 86//91 74//91
f 77//92 86//92 68//92
f 78//93 86//93 77//93
f 87//94 86//94 78//94
f 83//95 88//95 84//95
f 85//96 88//96 83//96
f 89//97 88//97 85//97
f 84//98 88//98 90//98
f 91//99 92//99 87//99
f 86//100 92//100 74//100
f 74//101 92//101 85//101
f 87//102 92//102 86//102
f 93//103 94//103 89//103
f 90//104 94//104 95//104
f 88//105 94//105 90//105
f 89//106 94//106 88//106
f 96//107 97//107 91//107
f 85//108 97//108 89//108
f 91//109 97//109 92//109
f 92//110 97//110 85//110
f 95//111 98//111 99//111
f 100//112 98//112 93//112
f 93//113 98//113 94//113
f 94//114 98//114 95//114
f 89//115 101//115 93//115
f 96//116 101//116 97//116
f 102//117 101//117 96//117
f 97//118 101//118 89//118
f 100//119 103//119 98//119
f 104//120 103//120 100//120
f 98//121 103//121 99//121
f 99//122 103//122 105//122
f 102//123 106//123 101//123
f 93//124 106//124 100//124
f 107//125 106//125 102//125
f 101//126 106//126 93//126
f 104//127 108//127 103//127
f 103//128 108//128 105//128
f 109//129 108//129 104//129
f 105//130 108//130 110//130
f 100//131 111//131 104//131
f 106//132 111//132 100//132
f 107//133 111//133 106//133
f 112//134 111//134 107//134
f 102//135 113//135 107//135
f 114//136 113//136 115//136
f 115//137 113//137 116//137
f 116//138 113//138 102//138
f 107//139 113//139 114//139
f 109//140 117//140 108//140
f 108//141 117//141 110//141
f 118//142 117//142 109//142
f 110//143 117//143 119//143
f 104//144 120//144 109//144
f 111//145 120//145 104//145
f 112//146 120//146 111//146
f 121//147 120//147 112//147
f 117//148 122//148 119//148
f 118//149 122//149 117//149
f 119//150 122//150 123//150
f 124//151 122//151 118//151
f 121//152 125//152 120//152
f 126//153 125//153 121//153
f 109//154 125//154 118//154
f 120//155 125//155 109//155
f 122//156 127//156 123//156
f 128//157 127//157 124//157
f 124//158 127//158 122//158
f 123//159 127//159 129//159
f 126//160 130//160 125//160
f 125//161 130//161 118//161
f 131//162 130//162 126//162
f 118//163 130//163 124//163
f 128//164 132//164 127//164
f 127//165 132//165 129//165
f 133//166 132//166 128//166
f 129//167 132//167 134//167
f 124//168 135//168 128//168
f 130//169 135//169 124//169
f 131//170 135//170 130//170
f 136//171 135//171 131//171
f 132//172 137//172 134//172
f 133//173 137//173 132//173
f 138//174 137//174 133//174
f 134//175 137//175 139//175
f 136//176 140//176 135//176
f 135//177 140//177 128//177
f 128//178 140//178 133//178
f 141//179 140//179 136//179
f 138//180 142//180 137//180
f 137//181 142//181 139//181
f 143//182 142//182 138//182
f 139//183 142//183 144//183
f 140//184 145//184 133//184
f 141//185 145//185 140//185
f 133//186 145//186 138//186
f 146//187 145//187 141//187
f 147//188 148//188 143//188
f 143//189 148//189 142//189
f 142//190 148//190 144//190
f 144//191 148//191 149//191
f 150//192 151//192 146//192
f 145//193 151//193 138//193
f 146//194 151//194 145//194
f 138//195 151//195 143//195
f 152//196 153//196 147//196
f 148//197 153//197 149//197
f 149//198 153//198 154//198
f 147//199 153//199 148//199
f 143//200 155//200 147//200
f 151//201 155//201 143//201
f 150//202 155//202 151//202
f 156//203 155//203 150//203
f 153//204 157//204 154//204
f 152//205 157//205 153//205
f 154//206 157//206 158//206
f 159//207 157//207 152//207
f 147//208 160//208 152//208
f 155//209 160//209 147//209
f 156//210 160//210 155//210
f 161//211 160//211 156//211
f 162//212 163//212 159//212
f 157//213 163//213 158//213
f 159//214 163//214 157//214
f 158//215 163//215 164//215
f 165//216 166//216 161//216
f 160//217 166//217 152//217
f 161//218 166//218 160//218
f 152//219 166//219 159//219
f 164//220 167//220 168//220
f 162//221 167//221 163//221
f 169//222 167//222 162//222
f 163//223 167//223 164//223
f 159//224 170//224 162//224
f 165//225 170//225 166//225
f 52//226 170//226 165//226
f 166//227 170//227 159//227
f 168//228 171//228 47//228
f 167//229 171//229 168//229
f 169//230 171//230 167//230
f 172//231 171//231 169//231
f 162//232 173//232 169//232
f 51//233 173//233 52//233
f 170//234 173//234 162//234
f 52//235 173//235 170//235
f 174//236 175//236 172//236
f 171//237 175//237 47//237
f 172//238 175//238 171//238
f 47//239 175//239 48//239
f 173//240 176//240 169//240
f 51//241 176//241 173//241
f 55//242 176//242 51//242
f 169//243 176//243 172//243
f 177//244 178//244 174//244
f 174//245 178//245 175//245
f 48//246 178//246 53//246
f 175//247 178//247 48//247
f 172//248 179//248 174//248
f 58//249 179//249 55//249
f 55//250 179//250 176//250
f 176//251 179//251 172//251
f 177//252 180//252 178//252
f 181//253 180//253 177//253
f 53//254 180//254 56//254
f 178//255 180//255 53//255
f 58//256 182//256 179//256
f 174//257 182//257 177//257
f 61//258 182//258 58//258
f 179//259 182//259 174//259
f 60//260 183//260 66//260
f 59//261 183//261 60//261
f 180//262 184//262 56//262
f 181//263 184//263 180//263
f 56//264 184//264 59//264
f 185//265 184//265 181//265
f 182//266 186//266 177//266
f 61//267 186//267 182//267
f 62//268 186//268 61//268
f 177//269 186//269 181//269
f 183//270 187//270 66//270
f 59//271 187//271 183//271
f 62//272 188//272 186//272
f 186//273 188//273 181//273
f 185//274 188//274 189//274
f 189//275 188//275 62//275
f 181//276 188//276 185//276
f 189//277 190//277 185//277
f 189//278 191//278 190//278
f 190//279 191//279 82//279
f 82//280 191//280 192//280
f 192//281 191//281 193//281
f 66//282 194//282 67//282
f 72//283 194//283 82//283
f 70//284 194//284 72//284
f 82//285 194//285 66//285
f 190//286 195//286 185//286
f 82//287 195//287 190//287
f 66//288 195//288 82//288
f 187//289 195//289 66//289
f 17//290 196//290 16//290
f 191//291 196//291 193//291
f 193//292 196//292 17//292
f 189//293 196//293 191//293
f 70//294 197//294 194//294
f 67//295 197//295 65//295
f 65//296 197//296 69//296
f 194//297 197//297 67//297
f 69//298 197//298 70//298
f 184//299 198//299 59//299
f 185//300 198//300 184//300
f 59//301 198//301 187//301
f 195//302 198//302 185//302
f 187//303 198//303 195//303
f 16//304 199//304 18//304
f 18//305 199//305 62//305
f 189//306 199//306 196//306
f 196//307 199//307 16//307
f 62//308 199//308 189//308
f 63//309 65//309 200//309
f 65//310 71//310 200//310
f 200//311 71//311 201//311
f 71//312 76//312 201//312
f 201//313 76//313 202//313
f 76//314 84//314 202//314
f 202//315 84//315 203//315
f 204//316 78//316 205//316
f 205//317 78//317 79//317
f 79//318 78//318 73//318
f 203//319 90//319 206//319
f 84//320 90//320 203//320
f 207//321 87//321 204//321
f 204//322 87//322 78//322
f 90//323 95//323 206//323
f 206//324 95//324 208//324
f 207//325 91//325 87//325
f 209//326 91//326 210//326
f 210//327 91//327 207//327
f 95//328 99//328 208//328
f 208//329 99//329 211//329
f 212//330 96//330 209//330
f 209//331 96//331 91//331
f 211//332 105//332 213//332
f 99//333 105//333 211//333
f 116//334 102//334 212//334
f 212//335 102//335 96//335
f 213//336 110//336 214//336
f 105//337 110//337 213//337
f 110//338 119//338 214//338
f 214//339 119//339 215//339
f 216//340 112//340 114//340
f 114//341 112//341 107//341
f 119//342 123//342 215//342
f 215//343 123//343 217//343
f 218//344 121//344 219//344
f 219//345 121//345 216//345
f 216//346 121//346 112//346
f 123//347 129//347 217//347
f 217//348 129//348 220//348
f 221//349 126//349 218//349
f 218//350 126//350 121//350
f 129//351 134//351 220//351
f 222//352 134//352 223//352
f 220//353 134//353 222//353
f 224//354 131//354 225//354
f 225//355 131//355 221//355
f 221//356 131//356 126//356
f 134//357 139//357 223//357
f 223//358 139//358 226//358
f 227//359 136//359 224//359
f 224//360 136//360 131//360
f 139//361 144//361 226//361
f 226//362 144//362 228//362
f 229//363 141//363 227//363
f 230//364 141//364 231//364
f 231//365 141//365 229//365
f 227//366 141//366 136//366
f 228//367 149//367 232//367
f 144//368 149//368 228//368
f 9//369 146//369 230//369
f 230//370 146//370 141//370
f 8//371 146//371 9//371
f 232//372 154//372 233//372
f 149//373 154//373 232//373
f 8//374 150//374 146//374
f 10//375 150//375 8//375
f 233//376 158//376 234//376
f 154//377 158//377 233//377
f 12//378 156//378 11//378
f 11//379 156//379 10//379
f 10//380 156//380 150//380
f 234//381 164//381 235//381
f 158//382 164//382 234//382
f 13//383 161//383 12//383
f 12//384 161//384 156//384
f 235//385 168//385 236//385
f 164//386 168//386 235//386
f 15//387 165//387 14//387
f 14//388 165//388 13//388
f 13//389 165//389 161//389
f 236//390 47//390 49//390
f 168//391 47//391 236//391
f 25//392 52//392 15//392
f 15//393 52//393 165//393
f 28//394 19//394 6//394
f 28//395 27//395 19//395
f 30//396 7//396 9//396
f 32//397 30//397 9//397
f 5//398 29//398 6//398
f 6//399 29//399 28//399
f 29//400 5//400 7//400
f 29//401 7//401 30//401
f 237//402 229//402 227//402
f 238//403 227//403 224//403
f 238//404 237//404 227//404
f 239//405 224//405 225//405
f 239//406 238//406 224//406
f 240//407 225//407 221//407
f 240//408 239//408 225//408
f 241//409 221//409 218//409
f 241//410 240//410 221//410
f 242//411 218//411 219//411
f 242//412 241//412 218//412
f 243//413 219//413 216//413
f 243//414 242//414 219//414
f 244//415 216//415 114//415
f 244//416 243//416 216//416
f 245//417 114//417 115//417
f 245//418 244//418 114//418
f 246//419 115//419 116//419
f 246//420 245//420 115//420
f 247//421 116//421 212//421
f 247//422 246//422 116//422
f 248//423 212//423 209//423
f 248//424 247//424 212//424
f 249//425 209//425 210//425
f 249//426 248//426 209//426
f 250//427 210//427 207//427
f 250//428 249//428 210//428
f 251//429 250//429 207//429
f 251//430 207//430 204//430
f 252//431 251//431 204//431
f 252//432 204//432 205//432
f 253//433 252//433 205//433
f 253//434 205//434 79//434
f 254//435 253//435 79//435
f 254//436 79//436 81//436
f 255//437 254//437 81//437
f 255//438 81//438 82//438
f 256//439 255//439 82//439
f 256//440 82//440 192//440
f 256//441 192//441 193//441
f 26//442 256//442 193//442
f 26//443 193//443 17//443
f 257//444 33//444 31//444
f 257//445 31//445 32//445
f 258//446 33//446 257//446
f 34//447 33//447 258//447
f 259//448 34//448 258//448
f 35//449 34//449 259//449
f 36//450 259//450 260//450
f 36//451 35//451 259//451
f 37//452 260//452 261//452
f 37//453 36//453 260//453
f 38//454 261//454 262//454
f 38//455 37//455 261//455
f 46//456 38//456 262//456
f 45//457 262//457 263//457
f 45//458 46//458 262//458
f 44//459 263//459 264//459
f 44//460 45//460 263//460
f 39//461 265//461 26//461
f 43//462 264//462 266//462
f 43//463 44//463 264//463
f 40//464 267//464 265//464
f 40//465 265//465 39//465
f 42//466 43//466 266//466
f 41//467 266//467 267//467
f 41//468 267//468 40//468
f 41//469 42//469 266//469
f 32//470 9//470 230//470
f 268//471 230//471 231//471
f 268//472 32//472 230//472
f 269//473 268//473 231//473
f 237//474 231//474 229//474
f 237//475 269//475 231//475
f 236//476 262//476 235//476
f 235//477 262//477 234//477
f 263//478 262//478 236//478
f 222//479 270//479 220//479
f 234//480 261//480 233//480
f 262//481 261//481 234//481
f 220//482 271//482 217//482
f 270//483 271//483 220//483
f 233//484 260//484 232//484
f 261//485 260//485 233//485
f 217//486 272//486 215//486
f 271//487 272//487 217//487
f 232//488 259//488 228//488
f 260//489 259//489 232//489
f 215//490 273//490 214//490
f 272//491 273//491 215//491
f 228//492 258//492 226//492
f 259//493 258//493 228//493
f 214//494 274//494 213//494
f 226//495 257//495 223//495
f 273//496 274//496 214//496
f 258//497 257//497 226//497
f 213//498 275//498 211//498
f 274//499 275//499 213//499
f 257//500 276//500 223//500
f 223//501 277//501 222//501
f 276//502 277//502 223//502
f 211//503 278//503 208//503
f 275//504 278//504 211//504
f 277//505 270//505 222//505
f 208//506 279//506 206//506
f 278//507 279//507 208//507
f 206//508 280//508 203//508
f 279//509 280//509 206//509
f 203//510 281//510 202//510
f 280//511 281//511 203//511
f 281//512 282//512 202//512
f 202//513 282//513 201//513
f 282//514 283//514 201//514
f 201//515 283//515 200//515
f 283//516 284//516 200//516
f 200//517 284//517 63//517
f 284//518 285//518 63//518
f 63//519 285//519 66//519
f 66//520 286//520 60//520
f 285//521 286//521 66//521
f 60//522 265//522 57//522
f 286//523 265//523 60//523
f 57//524 267//524 54//524
f 265//525 267//525 57//525
f 54//526 266//526 50//526
f 267//527 266//527 54//527
f 50//528 264//528 49//528
f 266//529 264//529 50//529
f 49//530 263//530 236//530
f 264//531 263//531 49//531
f 268//532 277//532 32//532
f 247//533 248//533 279//533
f 269//534 270//534 277//534
f 286//535 26//535 265//535
f 269//536 277//536 268//536
f 286//537 256//537 26//537
f 237//538 270//538 269//538
f 285//539 255//539 256//539
f 285//540 256//540 286//540
f 246//541 247//541 279//541
f 246//542 279//542 278//542
f 284//543 253//543 254//543
f 238//544 271//544 270//544
f 284//545 254//545 255//545
f 238//546 270//546 237//546
f 284//547 255//547 285//547
f 245//548 246//548 278//548
f 245//549 278//549 275//549
f 283//550 252//550 253//550
f 239//551 272//551 271//551
f 283//552 253//552 284//552
f 239//553 271//553 238//553
f 282//554 252//554 283//554
f 251//555 252//555 282//555
f 244//556 245//556 275//556
f 240//557 272//557 239//557
f 250//558 282//558 281//558
f 243//559 275//559 274//559
f 250//560 251//560 282//560
f 243//561 244//561 275//561
f 241//562 273//562 272//562
f 241//563 272//563 240//563
f 242//564 274//564 273//564
f 242//565 243//565 274//565
f 242//566 273//566 241//566
f 249//567 281//567 280//567
f 249//568 250//568 281//568
f 248//569 280//569 279//569
f 248//570 249//570 280//570
f 32//571 276//571 257//571
f 32//572 277//572 276//572
