# Created by FreeCAD <http://www.freecadweb.org>
v 2.500000 -2.380000 -1.000000
v 98.500000 -2.380000 -1.000000
v 2.500000 -2.380000 13.000000
v 98.500000 -2.380000 13.000000
v -4.500000 4.620000 -1.000000
v -4.324495 3.062353 -1.000000
v -4.500000 4.620000 13.000000
v -4.324495 3.062353 13.000000
v -3.806782 1.582814 -1.000000
v -3.806782 1.582814 13.000000
v -2.972820 0.255571 -1.000000
v -2.972820 0.255571 13.000000
v -1.864429 -0.852820 -1.000000
v -1.864429 -0.852820 13.000000
v -0.537186 -1.686782 -1.000000
v -0.537186 -1.686782 13.000000
v 0.942353 -2.204495 13.000000
v 0.942353 -2.204495 -1.000000
v 100.057648 -2.204495 -1.000000
v 100.057648 -2.204495 13.000000
v 101.537186 -1.686782 -1.000000
v 101.537186 -1.686782 13.000000
v 102.864426 -0.852820 -1.000000
v 102.864426 -0.852820 13.000000
v 103.972824 0.255571 -1.000000
v 103.972824 0.255571 13.000000
v 104.806786 1.582814 -1.000000
v 104.806786 1.582814 13.000000
v 105.324493 3.062353 -1.000000
v 105.324493 3.062353 13.000000
v 105.500000 4.620000 13.000000
v 105.500000 4.620000 -1.000000
v 105.500000 53.504143 -1.000000
v 104.806786 56.541328 -1.000000
v 105.324493 55.061790 -1.000000
v 100.057648 60.328640 -1.000000
v 101.537186 59.810925 -1.000000
v 98.500000 60.504143 -1.000000
v 103.972824 57.868572 -1.000000
v 102.864426 58.976963 -1.000000
v -1.864429 58.976963 -1.000000
v -0.537186 59.810925 -1.000000
v -2.972820 57.868572 -1.000000
v -3.806782 56.541328 -1.000000
v 0.942353 60.328640 -1.000000
v -4.324495 55.061790 -1.000000
v -4.500000 53.504143 -1.000000
v 2.500000 60.504143 -1.000000
v 24.799999 59.500000 -1.000000
v 24.799999 60.504143 -1.000000
v 33.200001 59.500000 -1.000000
v 67.800003 59.500000 -1.000000
v 33.200001 60.504143 -1.000000
v 67.800003 60.504143 -1.000000
v 76.199997 59.500000 -1.000000
v 76.199997 60.504143 -1.000000
v 14.500000 60.504143 13.000000
v 13.200000 59.299999 13.000000
v 14.500000 60.352718 13.000000
v 2.500000 60.504143 13.000000
v -1.640939 0.309011 13.000000
v -2.590989 1.259061 13.000000
v 25.154964 58.043484 13.000000
v 24.500000 57.513103 13.000000
v 24.500000 57.500000 13.000000
v 98.500000 60.504143 13.000000
v 76.199997 59.500000 13.000000
v 98.900002 57.500000 13.000000
v 76.199997 60.504143 13.000000
v 105.500000 53.504143 13.000000
v 104.900002 51.500000 13.000000
v 24.799999 59.500000 13.000000
v 24.500000 58.852295 13.000000
v 104.749565 52.835125 13.000000
v 104.305817 54.103302 13.000000
v -3.305813 2.396698 13.000000
v 24.500000 60.504143 13.000000
v 100.057648 60.328640 13.000000
v -0.503302 -0.405813 13.000000
v 24.799999 60.504143 13.000000
v 100.235123 57.349567 13.000000
v 0.764874 -0.849567 13.000000
v 105.324493 55.061790 13.000000
v 33.200001 59.500000 13.000000
v 103.590988 55.240940 13.000000
v -3.749568 3.664874 13.000000
v 101.537186 59.810925 13.000000
v 101.503304 56.905811 13.000000
v 104.806786 56.541328 13.000000
v 102.640938 56.190990 13.000000
v 103.972824 57.868572 13.000000
v 98.900002 -1.000000 13.000000
v 2.100000 -1.000000 13.000000
v 102.864426 58.976963 13.000000
v 67.800003 59.500000 13.000000
v 100.235123 -0.849567 13.000000
v -3.900000 5.000000 13.000000
v -3.900000 51.500000 13.000000
v 101.503304 -0.405813 13.000000
v -4.500000 53.504143 13.000000
v -3.749568 52.835125 13.000000
v 102.640938 0.309011 13.000000
v -3.305813 54.103302 13.000000
v -4.324495 55.061790 13.000000
v 103.590988 1.259061 13.000000
v -2.590989 55.240940 13.000000
v -3.806782 56.541328 13.000000
v 104.305817 2.396698 13.000000
v -1.640939 56.190990 13.000000
v -2.972820 57.868572 13.000000
v 104.749565 3.664874 13.000000
v -0.503302 56.905811 13.000000
v -1.864429 58.976963 13.000000
v 104.900002 5.000000 13.000000
v -0.537186 59.810925 13.000000
v 0.764874 57.349567 13.000000
v 67.800003 60.504143 13.000000
v 33.200001 60.504143 13.000000
v 0.942353 60.328640 13.000000
v 2.100000 57.500000 13.000000
v 14.500000 57.500000 13.000000
v 14.500000 57.694633 13.000000
v -4.500000 48.599998 6.100000
v -4.500000 48.599998 4.100000
v -4.500000 47.599998 3.100000
v -4.500000 8.348289 2.372645
v -4.500000 7.750000 2.300000
v -4.500000 8.911808 2.586360
v -4.500000 40.599998 6.100000
v -4.500000 5.268228 4.498658
v -4.500000 5.268228 5.101342
v -4.500000 5.412459 3.913488
v -4.500000 5.692540 3.379838
v -4.500000 6.092193 2.928723
v -4.500000 6.588192 2.586360
v -4.500000 7.151711 2.372645
v -4.500000 9.407806 2.928723
v -4.500000 41.599998 3.100000
v -4.500000 9.407806 6.671277
v -4.500000 9.807460 6.220162
v -4.500000 8.911808 7.013640
v -4.500000 10.087541 5.686512
v -4.500000 8.348289 7.227355
v -4.500000 40.599998 4.100000
v -4.500000 10.231772 5.101342
v -4.500000 7.750000 7.300000
v -4.500000 10.231772 4.498658
v -4.500000 7.151711 7.227355
v -4.500000 10.087541 3.913488
v -4.500000 6.588192 7.013640
v -4.500000 9.807460 3.379838
v -4.500000 6.092193 6.671277
v -4.500000 5.692540 6.220162
v -4.500000 5.412459 5.686512
v 24.500000 60.504143 7.000000
v 14.500000 60.504143 5.000000
v 24.500000 60.504143 5.000000
v 14.500000 60.504143 7.000000
v 14.500000 60.352718 7.000000
v 13.200000 59.299999 7.000000
v 13.442935 59.000000 11.000000
v 13.442935 59.000000 7.000000
v 14.500000 57.694633 11.000000
v 14.500000 57.500000 11.000000
v 2.100000 57.500000 11.000000
v -3.900000 51.500000 2.000000
v -3.872513 52.073658 2.000000
v -3.162070 54.382812 0.000000
v -3.654129 53.200001 2.000000
v -3.654129 53.200001 0.000000
v -3.790305 52.642059 2.000000
v -2.430123 55.434208 0.000000
v -1.491657 56.306248 0.000000
v 0.826239 57.363235 0.000000
v 0.000000 57.120499 2.000000
v -0.389454 56.959179 0.000000
v 0.683223 57.330330 2.000000
v 1.386550 57.457432 2.000000
v 0.000000 57.120499 11.000000
v 2.100000 57.500000 0.000000
v 2.100000 57.500000 2.000000
v 0.683223 57.330330 11.000000
v 1.386550 57.457432 11.000000
v -3.900000 8.348289 7.227355
v -3.900000 8.911808 7.013640
v -3.900000 11.300000 7.000000
v -3.900000 5.268228 4.498658
v -3.900000 5.000000 0.000000
v -3.900000 5.412459 3.913488
v -3.900000 48.599998 4.100000
v -3.900000 47.599998 3.100000
v -3.900000 48.599998 6.100000
v -3.900000 40.599998 6.100000
v -3.900000 36.000000 2.000000
v -3.900000 41.599998 3.100000
v -3.900000 40.599998 4.100000
v -3.900000 12.500000 7.000000
v -3.900000 12.500000 0.000000
v -3.900000 36.000000 0.000000
v -3.900000 7.750000 7.300000
v -3.900000 7.151711 7.227355
v -3.900000 6.588192 7.013640
v -3.900000 6.092193 6.671277
v -3.900000 5.692540 6.220162
v -3.900000 5.412459 5.686512
v -3.900000 5.268228 5.101342
v -3.900000 11.300000 0.000000
v -3.900000 10.231772 5.101342
v -3.900000 10.231772 4.498658
v -3.900000 10.087541 3.913488
v -3.900000 9.807460 3.379838
v -3.900000 9.407806 2.928723
v -3.900000 8.911808 2.586360
v -3.900000 8.348289 2.372645
v -3.900000 7.750000 2.300000
v -3.900000 7.151711 2.372645
v -3.900000 10.087541 5.686512
v -3.900000 6.588192 2.586360
v -3.900000 9.807460 6.220162
v -3.900000 6.092193 2.928723
v -3.900000 9.407806 6.671277
v -3.900000 5.692540 3.379838
v -3.816080 4.000000 7.000000
v -3.890656 4.665277 0.000000
v -3.862654 4.331598 0.000000
v -3.816080 4.000000 0.000000
v -3.556854 3.000000 7.000000
v -2.898861 1.681659 0.000000
v -3.556854 3.000000 0.000000
v -3.748884 3.661882 7.000000
v -3.662380 3.328182 7.000000
v -1.939412 0.563431 0.000000
v -0.736367 -0.287251 0.000000
v 0.637725 -0.819085 0.000000
v 2.100000 -1.000000 0.000000
v 98.900002 -1.000000 0.000000
v 104.900002 5.000000 0.000000
v 104.749565 3.664874 0.000000
v 104.305817 2.396698 0.000000
v 103.590988 1.259061 0.000000
v 102.640938 0.309011 0.000000
v 101.503304 -0.405813 0.000000
v 100.235123 -0.849567 0.000000
v 104.900002 51.500000 0.000000
v 104.749565 52.835125 0.000000
v 104.305817 54.103302 0.000000
v 103.590988 55.240940 0.000000
v 102.640938 56.190990 0.000000
v 101.503304 56.905811 0.000000
v 100.235123 57.349567 0.000000
v 98.900002 57.500000 0.000000
v 24.500000 57.500000 2.000000
v 24.500000 57.500000 5.000000
v 24.500000 57.500000 7.000000
v 24.500000 57.500000 11.000000
v 24.500000 57.513103 11.000000
v 24.500000 57.513103 7.000000
v 25.154964 58.043484 7.000000
v 24.500000 58.852295 11.000000
v 24.500000 58.852295 7.000000
v 24.500000 59.000000 7.000000
v 24.500000 59.000000 11.000000
v 14.500000 59.000000 5.000000
v 14.500000 59.000000 7.000000
v 24.500000 59.000000 5.000000
v 0.000000 59.000000 2.000000
v 0.000000 59.000000 11.000000
v 24.500000 59.000000 2.000000
v 0.100000 3.000000 0.000000
v 0.100000 12.500000 0.000000
v 2.600000 36.000000 0.000000
v 2.600000 53.200001 0.000000
v 2.600000 53.200001 2.000000
v 2.600000 36.000000 2.000000
v -0.900000 4.000000 0.000000
v -0.900000 11.300000 0.000000
v -0.900000 11.300000 7.000000
v -0.900000 4.000000 7.000000
v 0.100000 3.000000 7.000000
v 0.100000 12.500000 7.000000
vn 0.000000 -1.000000 0.000000
vn 0.000000 -1.000000 0.000000
vn -0.993712 -0.111965 0.000000
vn -0.993712 -0.111965 0.000000
vn -0.943883 -0.330279 0.000000
vn -0.943883 -0.330279 0.000000
vn -0.846724 -0.532032 0.000000
vn -0.846724 -0.532032 0.000000
vn -0.707107 -0.707107 0.000000
vn -0.707107 -0.707107 0.000000
vn -0.532032 -0.846724 0.000000
vn -0.330279 -0.943883 -0.000000
vn -0.532032 -0.846724 0.000000
vn -0.330279 -0.943883 0.000000
vn -0.111965 -0.993712 0.000000
vn -0.111965 -0.993712 0.000000
vn 0.111964 -0.993712 0.000000
vn 0.111964 -0.993712 0.000000
vn 0.330279 -0.943883 0.000000
vn 0.330279 -0.943883 0.000000
vn 0.532033 -0.846724 0.000000
vn 0.532033 -0.846724 0.000000
vn 0.707105 -0.707109 0.000000
vn 0.707105 -0.707109 0.000000
vn 0.846724 -0.532032 0.000000
vn 0.846724 -0.532032 0.000000
vn 0.943884 -0.330276 0.000000
vn 0.993712 -0.111966 0.000000
vn 0.943884 -0.330276 0.000000
vn 0.993712 -0.111966 0.000000
vn 0.000000 0.000000 -1.000000
vn -0.000000 -0.000000 -1.000000
vn 0.000000 0.000000 -1.000000
vn 0.000000 0.000000 -1.000000
vn 0.000000 0.000000 -1.000000
vn -0.000000 -0.000000 -1.000000
vn 0.000000 0.000000 -1.000000
vn 0.000000 0.000000 -1.000000
vn 0.000000 0.000000 -1.000000
vn 0.000000 0.000000 -1.000000
vn 0.000000 0.000000 -1.000000
vn 0.000000 0.000000 -1.000000
vn 0.000000 -0.000000 -1.000000
vn 0.000000 -0.000000 -1.000000
vn 0.000000 -0.000000 -1.000000
vn 0.000000 -0.000000 -1.000000
vn 0.000000 -0.000000 -1.000000
vn 0.000000 -0.000000 -1.000000
vn 0.000000 0.000000 -1.000000
vn 0.000000 0.000000 -1.000000
vn 0.000000 -0.000000 -1.000000
vn 0.000000 0.000000 -1.000000
vn 0.000000 -0.000000 -1.000000
vn 0.000000 0.000000 -1.000000
vn 0.000000 0.000000 -1.000000
vn 0.000000 0.000000 -1.000000
vn 0.000000 0.000000 -1.000000
vn 0.000000 0.000000 -1.000000
vn 0.000000 0.000000 -1.000000
vn 0.000000 0.000000 -1.000000
vn 0.000000 -0.000000 -1.000000
vn 0.000000 0.000000 -1.000000
vn 0.000000 0.000000 -1.000000
vn 0.000000 0.000000 -1.000000
vn 0.000000 0.000000 -1.000000
vn 0.000000 0.000000 -1.000000
vn 0.000000 0.000000 -1.000000
vn 0.000000 -0.000000 -1.000000
vn 0.000000 0.000000 1.000000
vn 0.000000 0.000000 1.000000
vn 0.000000 0.000000 1.000000
vn 0.000000 0.000000 1.000000
vn 0.000000 0.000000 1.000000
vn 0.000000 0.000000 1.000000
vn 0.000000 0.000000 1.000000
vn 0.000000 0.000000 1.000000
vn 0.000000 0.000000 1.000000
vn 0.000000 0.000000 1.000000
vn 0.000000 0.000000 1.000000
vn 0.000000 0.000000 1.000000
vn 0.000000 0.000000 1.000000
vn 0.000000 0.000000 1.000000
vn 0.000000 0.000000 1.000000
vn 0.000000 0.000000 1.000000
vn 0.000000 0.000000 1.000000
vn 0.000000 0.000000 1.000000
vn 0.000000 0.000000 1.000000
vn 0.000000 0.000000 1.000000
vn 0.000000 0.000000 1.000000
vn 0.000000 0.000000 1.000000
vn 0.000000 0.000000 1.000000
vn 0.000000 0.000000 1.000000
vn 0.000000 0.000000 1.000000
vn 0.000000 0.000000 1.000000
vn 0.000000 0.000000 1.000000
vn 0.000000 0.000000 1.000000
vn 0.000000 0.000000 1.000000
vn 0.000000 0.000000 1.000000
vn 0.000000 0.000000 1.000000
vn 0.000000 0.000000 1.000000
vn 0.000000 0.000000 1.000000
vn 0.000000 0.000000 1.000000
vn 0.000000 0.000000 1.000000
vn 0.000000 0.000000 1.000000
vn 0.000000 0.000000 1.000000
vn 0.000000 0.000000 1.000000
vn 0.000000 0.000000 1.000000
vn 0.000000 0.000000 1.000000
vn 0.000000 0.000000 1.000000
vn 0.000000 0.000000 1.000000
vn 0.000000 0.000000 1.000000
vn 0.000000 0.000000 1.000000
vn 0.000000 0.000000 1.000000
vn 0.000000 0.000000 1.000000
vn 0.000000 0.000000 1.000000
vn 0.000000 0.000000 1.000000
vn 0.000000 0.000000 1.000000
vn 0.000000 0.000000 1.000000
vn 0.000000 0.000000 1.000000
vn 0.000000 0.000000 1.000000
vn 0.000000 0.000000 1.000000
vn 0.000000 0.000000 1.000000
vn 0.000000 0.000000 1.000000
vn 0.000000 0.000000 1.000000
vn 0.000000 0.000000 1.000000
vn 0.000000 0.000000 1.000000
vn 0.000000 0.000000 1.000000
vn 0.000000 0.000000 1.000000
vn 0.000000 0.000000 1.000000
vn 0.000000 0.000000 1.000000
vn 0.000000 0.000000 1.000000
vn 0.000000 0.000000 1.000000
vn 0.000000 0.000000 1.000000
vn 0.000000 0.000000 1.000000
vn 0.000000 0.000000 1.000000
vn 0.000000 0.000000 1.000000
vn 0.000000 0.000000 1.000000
vn 0.000000 0.000000 1.000000
vn 0.000000 0.000000 1.000000
vn 0.000000 0.000000 1.000000
vn 0.000000 0.000000 1.000000
vn 0.000000 0.000000 1.000000
vn 0.000000 0.000000 1.000000
vn 0.000000 0.000000 1.000000
vn 0.000000 0.000000 1.000000
vn 0.000000 0.000000 1.000000
vn 0.000000 0.000000 1.000000
vn 0.000000 0.000000 1.000000
vn -1.000000 0.000000 0.000000
vn -1.000000 0.000000 -0.000000
vn -1.000000 0.000000 0.000000
vn -1.000000 0.000000 0.000000
vn -1.000000 0.000000 0.000000
vn -1.000000 0.000000 0.000000
vn -1.000000 -0.000000 0.000000
vn -1.000000 -0.000000 0.000000
vn -1.000000 -0.000000 0.000000
vn -1.000000 -0.000000 0.000000
vn -1.000000 -0.000000 0.000000
vn -1.000000 -0.000000 0.000000
vn -1.000000 -0.000000 0.000000
vn -1.000000 0.000000 0.000000
vn -1.000000 0.000000 0.000000
vn -1.000000 0.000000 0.000000
vn -1.000000 0.000000 0.000000
vn -1.000000 0.000000 0.000000
vn -1.000000 0.000000 0.000000
vn -1.000000 0.000000 0.000000
vn -1.000000 0.000000 0.000000
vn -1.000000 0.000000 0.000000
vn -1.000000 -0.000000 0.000000
vn -1.000000 0.000000 0.000000
vn -1.000000 0.000000 0.000000
vn -1.000000 0.000000 0.000000
vn -1.000000 0.000000 0.000000
vn -1.000000 0.000000 0.000000
vn -1.000000 -0.000000 0.000000
vn -1.000000 -0.000000 0.000000
vn -1.000000 -0.000000 0.000000
vn -1.000000 0.000000 0.000000
vn -1.000000 -0.000000 0.000000
vn -1.000000 -0.000000 0.000000
vn -1.000000 0.000000 0.000000
vn -1.000000 -0.000000 0.000000
vn -1.000000 -0.000000 0.000000
vn -1.000000 -0.000000 0.000000
vn 1.000000 0.000000 0.000000
vn 1.000000 -0.000000 0.000000
vn -0.111963 0.993712 0.000000
vn -0.111963 0.993712 0.000000
vn -0.330280 0.943883 0.000000
vn -0.330280 0.943883 0.000000
vn -0.532032 0.846724 0.000000
vn -0.532032 0.846724 0.000000
vn -0.707107 0.707107 0.000000
vn -0.707107 0.707107 0.000000
vn -0.846724 0.532032 0.000000
vn -0.943883 0.330279 0.000000
vn -0.846724 0.532032 0.000000
vn -0.943883 0.330279 0.000000
vn -0.993712 0.111964 0.000000
vn -0.993712 0.111964 0.000000
vn 0.000000 1.000000 0.000000
vn 0.000000 1.000000 0.000000
vn 0.000000 1.000000 -0.000000
vn 0.000000 1.000000 -0.000000
vn 0.000000 1.000000 0.000000
vn 0.000000 1.000000 0.000000
vn 0.000000 1.000000 0.000000
vn 0.000000 1.000000 0.000000
vn 1.000000 -0.000000 0.000000
vn 1.000000 0.000000 0.000000
vn 0.000000 1.000000 0.000000
vn 0.000000 1.000000 0.000000
vn -1.000000 0.000000 0.000000
vn -1.000000 0.000000 0.000000
vn 0.000000 1.000000 0.000000
vn 0.000000 1.000000 -0.000000
vn 1.000000 -0.000000 0.000000
vn 1.000000 0.000000 0.000000
vn 0.000000 1.000000 0.000000
vn 0.000000 1.000000 0.000000
vn -1.000000 0.000000 0.000000
vn -1.000000 0.000000 0.000000
vn 0.000000 1.000000 0.000000
vn 0.000000 1.000000 -0.000000
vn 0.993712 0.111966 -0.000000
vn 0.993712 0.111966 0.000000
vn 0.943884 0.330276 0.000000
vn 0.943884 0.330276 -0.000000
vn 0.846724 0.532032 0.000000
vn 0.846724 0.532032 -0.000000
vn 0.707104 0.707109 0.000000
vn 0.707104 0.707109 -0.000000
vn 0.532033 0.846724 0.000000
vn 0.532033 0.846724 -0.000000
vn 0.330281 0.943883 0.000000
vn 0.111963 0.993712 0.000000
vn 0.330281 0.943883 -0.000000
vn 0.111963 0.993712 0.000000
vn 1.000000 -0.000000 0.000000
vn 1.000000 0.000000 0.000000
vn 0.629320 -0.777146 0.000000
vn 0.629320 -0.777146 0.000000
vn 0.777145 0.629321 0.000000
vn 0.777145 0.629321 0.000000
vn 0.777146 0.629320 0.000000
vn 0.777146 0.629321 0.000000
vn 1.000000 -0.000000 0.000000
vn 1.000000 0.000000 0.000000
vn 0.000000 -1.000000 0.000000
vn 0.000000 -1.000000 0.000000
vn 0.998854 -0.047860 0.000000
vn 0.923293 -0.384097 0.000000
vn 0.971483 -0.237109 0.000564
vn 0.989702 -0.143141 -0.001153
vn 0.993707 -0.111964 -0.003356
vn 0.943880 -0.330278 -0.002766
vn 0.924502 -0.381173 0.002027
vn 0.820706 -0.571348 0.001662
vn 0.846723 -0.532030 -0.002077
vn 0.680705 -0.732557 0.001322
vn 0.707106 -0.707106 -0.001762
vn 0.315367 -0.948849 0.015124
vn 0.293582 -0.955919 0.005266
vn 0.509671 -0.860369 0.000932
vn 0.532030 -0.846725 -0.001398
vn 0.384538 -0.923109 -0.000422
vn 0.177834 -0.984054 -0.003474
vn 0.392354 -0.919815 0.000000
vn 0.106742 -0.994143 0.016918
vn 0.059559 -0.998225 0.000000
vn 0.293585 -0.955929 -0.002791
vn 0.330226 -0.943727 -0.018201
vn 0.177834 -0.984058 0.002205
vn 0.059559 -0.998225 0.000000
vn 0.111945 -0.993537 -0.018787
vn 1.000000 0.000000 0.000000
vn 1.000000 0.000000 0.000000
vn 1.000000 0.000000 0.000000
vn 1.000000 0.000000 0.000000
vn 1.000000 0.000000 0.000000
vn 1.000000 0.000000 0.000000
vn 1.000000 0.000000 0.000000
vn 1.000000 0.000000 0.000000
vn 1.000000 0.000000 0.000000
vn 1.000000 0.000000 0.000000
vn 1.000000 0.000000 0.000000
vn 1.000000 0.000000 0.000000
vn 1.000000 0.000000 0.000000
vn 1.000000 0.000000 0.000000
vn 1.000000 0.000000 0.000000
vn 1.000000 0.000000 0.000000
vn 1.000000 0.000000 0.000000
vn 1.000000 -0.000000 0.000000
vn 1.000000 0.000000 0.000000
vn 1.000000 0.000000 0.000000
vn 1.000000 0.000000 0.000000
vn 1.000000 0.000000 0.000000
vn 1.000000 0.000000 0.000000
vn 1.000000 0.000000 0.000000
vn 1.000000 0.000000 -0.000000
vn 1.000000 0.000000 0.000000
vn 1.000000 0.000000 0.000000
vn 1.000000 0.000000 0.000000
vn 1.000000 0.000000 0.000000
vn 1.000000 -0.000000 0.000000
vn 1.000000 -0.000000 0.000000
vn 1.000000 0.000000 0.000000
vn 1.000000 0.000000 0.000000
vn 1.000000 -0.000000 0.000000
vn 1.000000 0.000000 0.000000
vn 1.000000 0.000000 0.000000
vn 1.000000 0.000000 0.000000
vn 1.000000 0.000000 0.000000
vn 1.000000 -0.000000 0.000000
vn 1.000000 0.000000 0.000000
vn 1.000000 -0.000000 0.000000
vn 1.000000 0.000000 0.000000
vn 1.000000 0.000000 0.000000
vn 1.000000 0.000000 0.000000
vn 0.999579 0.027903 -0.007997
vn 0.996494 0.083626 -0.002669
vn 0.990280 0.139088 0.000000
vn 0.996497 0.083626 -0.000000
vn 0.894747 0.446574 0.000000
vn 0.980818 0.194924 0.000015
vn 0.968005 0.250932 -0.000015
vn 0.951990 0.306109 -0.003344
vn 0.993701 0.111963 -0.004762
vn 0.904936 0.425518 0.004923
vn 0.943865 0.330273 -0.006282
vn 0.758928 0.651166 0.003195
vn 0.846721 0.532030 -0.002757
vn 0.577348 0.816494 0.002724
vn 0.707105 0.707105 -0.002396
vn 0.360951 0.932583 0.002034
vn 0.532031 0.846723 -0.001816
vn 0.122785 0.992433 0.001126
vn 0.330279 0.943883 -0.001017
vn 0.111964 0.993712 0.000000
vn 0.000000 1.000000 0.000000
vn 0.000000 1.000000 0.000000
vn -0.993712 0.111967 0.000000
vn -0.993712 0.111967 0.000000
vn -0.943885 0.330275 0.000000
vn -0.943885 0.330275 0.000000
vn -0.846723 0.532034 0.000000
vn -0.846723 0.532034 0.000000
vn -0.707107 0.707107 0.000000
vn -0.707107 0.707107 0.000000
vn -0.532033 0.846724 0.000000
vn -0.532033 0.846724 0.000000
vn -0.330278 0.943884 0.000000
vn -0.330278 0.943884 0.000000
vn -0.111965 0.993712 0.000000
vn -0.111965 0.993712 0.000000
vn -1.000000 0.000000 0.000000
vn -1.000000 0.000000 0.000000
vn -0.993712 -0.111967 0.000000
vn -0.993712 -0.111967 0.000000
vn -0.943885 -0.330275 0.000000
vn -0.943885 -0.330275 -0.000000
vn -0.846723 -0.532034 0.000000
vn -0.846723 -0.532034 -0.000000
vn -0.707107 -0.707107 0.000000
vn -0.707107 -0.707107 -0.000000
vn -0.532031 -0.846725 0.000000
vn -0.532031 -0.846725 -0.000000
vn -0.330279 -0.943883 0.000000
vn -0.330279 -0.943883 -0.000000
vn -0.111965 -0.993712 0.000000
vn -0.111965 -0.993712 -0.000000
vn 0.000000 -1.000000 0.000000
vn 0.000000 -1.000000 0.000000
vn 0.000000 -1.000000 0.000000
vn 0.000000 -1.000000 0.000000
vn 0.000000 -1.000000 0.000000
vn 0.000000 -1.000000 0.000000
vn 0.000000 -1.000000 0.000000
vn -1.000000 0.000000 0.000000
vn -1.000000 0.000000 0.000000
vn -0.629321 0.777146 0.000000
vn -0.629321 0.777146 0.000000
vn -0.629321 0.777146 0.000000
vn -0.777145 -0.629322 0.000000
vn -0.777145 -0.629322 0.000000
vn -0.777145 -0.629322 0.000000
vn -1.000000 0.000000 0.000000
vn -1.000000 0.000000 0.000000
vn -1.000000 0.000000 0.000000
vn -1.000000 0.000000 0.000000
vn 0.000000 0.707107 0.707107
vn 0.000000 0.707107 0.707107
vn 0.000000 0.000000 1.000000
vn 0.000000 0.000000 1.000000
vn 0.000000 1.000000 0.000000
vn 0.000000 1.000000 0.000000
vn 0.000000 -0.707107 0.707107
vn 0.000000 -0.707107 0.707107
vn 0.000000 0.000000 -1.000000
vn 0.000000 0.000000 -1.000000
vn 0.000000 -1.000000 0.000000
vn 0.000000 -1.000000 0.000000
vn 0.000000 0.885456 -0.464723
vn 0.000000 0.885456 -0.464723
vn 0.000000 0.970942 -0.239316
vn 0.000000 0.970942 -0.239316
vn 0.000000 -0.120537 0.992709
vn 0.000000 1.000000 0.000000
vn 0.000000 -0.120537 0.992709
vn 0.000000 1.000000 0.000000
vn 0.000000 -0.354605 0.935016
vn 0.000000 0.970942 0.239316
vn 0.000000 -0.354605 0.935016
vn 0.000000 0.970942 0.239316
vn 0.000000 -0.568065 0.822984
vn 0.000000 0.885456 0.464723
vn 0.000000 0.885456 0.464723
vn 0.000000 -0.568065 0.822984
vn 0.000000 -0.748510 0.663123
vn 0.000000 0.748511 0.663122
vn 0.000000 0.748511 0.663122
vn 0.000000 -0.748510 0.663123
vn 0.000000 -0.885456 0.464723
vn 0.000000 0.568065 0.822984
vn 0.000000 -0.885456 0.464723
vn 0.000000 0.568065 0.822984
vn 0.000000 0.354605 0.935016
vn 0.000000 -0.970942 0.239316
vn 0.000000 0.354605 0.935016
vn 0.000000 0.120537 0.992709
vn 0.000000 -0.970942 0.239316
vn 0.000000 0.120537 0.992709
vn 0.000000 -1.000000 0.000000
vn 0.000000 -1.000000 0.000000
vn 0.000000 -0.970942 -0.239316
vn -0.000000 -0.970942 -0.239316
vn 0.000000 -0.885456 -0.464723
vn -0.000000 -0.885456 -0.464723
vn 0.000000 -0.748510 -0.663123
vn -0.000000 -0.748510 -0.663123
vn 0.000000 -0.568065 -0.822984
vn -0.000000 -0.568065 -0.822984
vn -0.000000 -0.354605 -0.935016
vn 0.000000 -0.354605 -0.935016
vn -0.000000 -0.120537 -0.992709
vn 0.000000 -0.120537 -0.992709
vn 0.000000 0.120537 -0.992709
vn 0.000000 0.120537 -0.992709
vn 0.000000 0.354605 -0.935016
vn 0.000000 0.354605 -0.935016
vn 0.000000 0.568064 -0.822984
vn 0.000000 0.568064 -0.822984
vn 0.000000 0.748511 -0.663122
vn 0.000000 0.748511 -0.663122
vn 1.000000 0.000000 0.000000
vn 1.000000 -0.000000 0.000000
vn 1.000000 -0.000000 0.000000
vn 0.000000 0.000000 1.000000
vn 0.000000 0.000000 1.000000
vn -1.000000 0.000000 0.000000
vn -1.000000 0.000000 0.000000
vn 0.000000 -0.000000 1.000000
vn 0.000000 0.000000 1.000000
vn 0.000000 -1.000000 0.000000
vn -0.000000 -1.000000 0.000000
vn 0.000000 -1.000000 0.000000
vn 0.000000 -1.000000 0.000000
vn 0.000000 -1.000000 0.000000
vn 0.000000 -1.000000 0.000000
vn 0.000000 0.000000 -1.000000
vn 0.000000 0.000000 -1.000000
vn 0.000000 0.000000 -1.000000
vn 0.000000 0.000000 -1.000000
vn 0.000000 0.000000 -1.000000
vn 0.000000 0.000000 -1.000000
vn 1.000000 -0.000000 0.000000
vn 1.000000 0.000000 0.000000
vn 0.000000 0.000000 1.000000
vn 0.000000 0.000000 1.000000
vn 0.000000 0.000000 1.000000
vn 0.000000 0.000000 1.000000
vn 0.000000 0.000000 1.000000
vn 0.000000 0.000000 1.000000
vn 0.000000 0.000000 1.000000
vn 0.000000 0.000000 1.000000
vn 0.000000 0.000000 1.000000
vn 0.000000 0.000000 1.000000
vn 0.000000 0.000000 1.000000
vn 0.000000 0.000000 1.000000
vn 0.000000 0.000000 1.000000
vn 0.000000 0.000000 1.000000
vn 0.000000 0.000000 1.000000
vn 0.000000 0.000000 1.000000
vn 0.000000 0.000000 1.000000
vn 0.000000 0.000000 1.000000
vn 0.000000 0.000000 1.000000
vn 0.000000 0.000000 1.000000
vn 0.000000 0.000000 1.000000
vn 0.000000 0.000000 1.000000
vn 0.000000 0.000000 1.000000
vn 0.000000 0.000000 1.000000
vn 0.000000 0.000000 1.000000
vn 0.000000 0.000000 1.000000
vn 0.000000 0.000000 1.000000
vn 0.000000 0.000000 1.000000
vn 0.000000 0.000000 1.000000
vn 0.000000 0.000000 1.000000
vn 0.000000 0.000000 1.000000
vn 0.000000 0.000000 1.000000
vn 0.000000 0.000000 1.000000
vn 0.000000 0.000000 1.000000
vn 0.000000 0.000000 1.000000
vn 0.000000 0.000000 1.000000
vn 0.000000 0.000000 1.000000
vn 0.000000 0.000000 1.000000
vn 0.000000 1.000000 0.000000
vn 0.000000 1.000000 0.000000
vn 0.000000 0.000000 1.000000
vn 0.000000 0.000000 1.000000
vn 0.000000 0.000000 1.000000
vn 0.000000 0.000000 1.000000
vn 0.000000 0.000000 1.000000
vn 0.000000 0.000000 1.000000
vn 0.000000 0.000000 1.000000
vn 0.000000 0.000000 1.000000
vn 0.000000 0.000000 1.000000
vn 0.000000 0.000000 1.000000
vn 0.000000 -1.000000 0.000000
vn 0.000000 -1.000000 0.000000
vn 0.000000 -1.000000 0.000000
vn 0.000000 -1.000000 0.000000
vn 0.000000 0.000000 1.000000
vn 0.000000 0.000000 1.000000
vn 0.000000 0.000000 1.000000
vn 0.000000 0.000000 1.000000
vn 0.000000 0.000000 1.000000
vn 0.000000 0.000000 1.000000
vn 0.000000 0.000000 1.000000
vn 0.000000 0.000000 1.000000
vn 0.000000 1.000000 0.000000
vn 0.000000 1.000000 0.000000
vn 0.000000 -1.000000 0.000000
vn 0.000000 -1.000000 0.000000
vn 0.000000 1.000000 0.000000
vn 0.000000 1.000000 0.000000
vn -1.000000 0.000000 0.000000
vn -1.000000 0.000000 0.000000
vn -1.000000 0.000000 0.000000
vn -1.000000 0.000000 0.000000
vn -1.000000 0.000000 0.000000
vn -1.000000 0.000000 0.000000
vn -1.000000 0.000000 0.000000
vn -1.000000 0.000000 0.000000
vn 0.000000 0.000000 1.000000
vn -1.000000 0.000000 0.000000
vn -1.000000 0.000000 0.000000
vn 1.000000 0.000000 0.000000
vn 1.000000 -0.000000 0.000000
vn 1.000000 0.000000 0.000000
vn 1.000000 -0.000000 0.000000
vn -1.000000 0.000000 0.000000
vn -1.000000 0.000000 0.000000
f 1//1 2//1 3//1
f 3//2 2//2 4//2
f 5//3 6//3 7//3
f 7//4 6//4 8//4
f 8//5 9//5 10//5
f 6//6 9//6 8//6
f 10//7 11//7 12//7
f 9//8 11//8 10//8
f 12//9 13//9 14//9
f 11//10 13//10 12//10
f 14//11 15//11 16//11
f 16//12 15//12 17//12
f 13//13 15//13 14//13
f 15//14 18//14 17//14
f 17//15 1//15 3//15
f 18//16 1//16 17//16
f 2//17 19//17 4//17
f 4//18 19//18 20//18
f 20//19 21//19 22//19
f 19//20 21//20 20//20
f 22//21 23//21 24//21
f 21//22 23//22 22//22
f 24//23 25//23 26//23
f 23//24 25//24 24//24
f 26//25 27//25 28//25
f 25//26 27//26 26//26
f 28//27 29//27 30//27
f 30//28 29//28 31//28
f 27//29 29//29 28//29
f 29//30 32//30 31//30
f 33//31 34//31 35//31
f 36//32 37//32 38//32
f 38//33 39//33 33//33
f 11//34 9//34 13//34
f 33//35 39//35 34//35
f 37//36 39//36 38//36
f 37//37 40//37 39//37
f 13//38 18//38 15//38
f 9//39 18//39 13//39
f 9//40 1//40 18//40
f 6//41 5//41 9//41
f 9//42 5//42 1//42
f 41//43 42//43 43//43
f 43//44 42//44 44//44
f 44//45 45//45 46//45
f 46//46 45//46 47//46
f 42//47 45//47 44//47
f 45//48 48//48 47//48
f 47//49 49//49 5//49
f 5//50 49//50 1//50
f 48//51 49//51 47//51
f 48//52 50//52 49//52
f 49//53 51//53 1//53
f 2//54 21//54 19//54
f 21//55 25//55 23//55
f 25//56 32//56 27//56
f 27//57 32//57 29//57
f 2//58 32//58 21//58
f 21//59 32//59 25//59
f 1//60 52//60 2//60
f 51//61 52//61 1//61
f 53//62 54//62 51//62
f 51//63 54//63 52//63
f 52//64 55//64 2//64
f 2//65 55//65 32//65
f 56//66 38//66 55//66
f 55//67 33//67 32//67
f 38//68 33//68 55//68
f 57//69 58//69 59//69
f 57//70 60//70 58//70
f 61//71 12//71 14//71
f 62//72 10//72 12//72
f 63//73 64//73 65//73
f 62//74 12//74 61//74
f 66//75 67//75 68//75
f 66//76 69//76 67//76
f 70//77 71//77 31//77
f 72//78 73//78 63//78
f 70//79 74//79 71//79
f 70//80 75//80 74//80
f 76//81 8//81 10//81
f 76//82 10//82 62//82
f 77//83 73//83 72//83
f 78//84 66//84 68//84
f 79//85 14//85 16//85
f 80//86 77//86 72//86
f 78//87 68//87 81//87
f 79//88 61//88 14//88
f 82//89 79//89 16//89
f 83//90 75//90 70//90
f 84//91 63//91 65//91
f 82//92 16//92 17//92
f 83//93 85//93 75//93
f 84//94 72//94 63//94
f 86//95 8//95 76//95
f 87//96 78//96 81//96
f 87//97 81//97 88//97
f 89//98 85//98 83//98
f 89//99 90//99 85//99
f 7//100 8//100 86//100
f 91//101 88//101 90//101
f 91//102 90//102 89//102
f 92//103 93//103 3//103
f 93//104 82//104 17//104
f 94//105 87//105 88//105
f 92//106 4//106 20//106
f 94//107 88//107 91//107
f 92//108 3//108 4//108
f 65//109 68//109 67//109
f 65//110 67//110 95//110
f 65//111 95//111 84//111
f 93//112 17//112 3//112
f 96//113 92//113 20//113
f 97//114 7//114 86//114
f 22//115 96//115 20//115
f 98//116 7//116 97//116
f 99//117 96//117 22//117
f 100//118 7//118 98//118
f 24//119 99//119 22//119
f 101//120 100//120 98//120
f 102//121 99//121 24//121
f 103//122 104//122 100//122
f 26//123 102//123 24//123
f 103//124 100//124 101//124
f 105//125 102//125 26//125
f 106//126 104//126 103//126
f 28//127 105//127 26//127
f 107//128 104//128 106//128
f 108//129 105//129 28//129
f 109//130 107//130 106//130
f 30//131 108//131 28//131
f 110//132 107//132 109//132
f 111//133 108//133 30//133
f 112//134 110//134 109//134
f 113//135 110//135 112//135
f 31//136 114//136 111//136
f 115//137 112//137 116//137
f 31//138 111//138 30//138
f 115//139 113//139 112//139
f 117//140 84//140 95//140
f 117//141 118//141 84//141
f 119//142 116//142 120//142
f 119//143 115//143 116//143
f 60//144 119//144 120//144
f 71//145 114//145 31//145
f 58//146 121//146 122//146
f 58//147 120//147 121//147
f 58//148 60//148 120//148
f 123//149 47//149 124//149
f 100//150 47//150 123//150
f 47//151 125//151 124//151
f 126//152 5//152 127//152
f 128//153 5//153 126//153
f 123//154 129//154 100//154
f 130//155 5//155 131//155
f 132//156 5//156 130//156
f 133//157 5//157 132//157
f 134//158 5//158 133//158
f 135//159 5//159 134//159
f 136//160 5//160 135//160
f 127//161 5//161 136//161
f 47//162 5//162 128//162
f 47//163 128//163 137//163
f 47//164 138//164 125//164
f 47//165 137//165 138//165
f 5//166 7//166 131//166
f 129//167 7//167 100//167
f 129//168 139//168 7//168
f 129//169 140//169 139//169
f 139//170 141//170 7//170
f 129//171 142//171 140//171
f 141//172 143//172 7//172
f 144//173 145//173 129//173
f 129//174 145//174 142//174
f 143//175 146//175 7//175
f 144//176 147//176 145//176
f 146//177 148//177 7//177
f 144//178 149//178 147//178
f 148//179 150//179 7//179
f 144//180 151//180 149//180
f 150//181 152//181 7//181
f 138//182 137//182 144//182
f 144//183 137//183 151//183
f 152//184 153//184 7//184
f 153//185 154//185 7//185
f 154//186 131//186 7//186
f 32//187 33//187 31//187
f 31//188 33//188 70//188
f 48//189 45//189 60//189
f 60//190 45//190 119//190
f 119//191 42//191 115//191
f 45//192 42//192 119//192
f 115//193 41//193 113//193
f 42//194 41//194 115//194
f 113//195 43//195 110//195
f 41//196 43//196 113//196
f 110//197 44//197 107//197
f 107//198 44//198 104//198
f 43//199 44//199 110//199
f 44//200 46//200 104//200
f 104//201 47//201 100//201
f 46//202 47//202 104//202
f 80//203 155//203 77//203
f 50//204 156//204 157//204
f 158//205 60//205 57//205
f 156//206 48//206 158//206
f 158//207 48//207 60//207
f 50//208 48//208 156//208
f 80//209 50//209 155//209
f 155//210 50//210 157//210
f 72//211 50//211 80//211
f 72//212 49//212 50//212
f 84//213 49//213 72//213
f 84//214 51//214 49//214
f 53//215 84//215 118//215
f 51//216 84//216 53//216
f 117//217 53//217 118//217
f 54//218 53//218 117//218
f 95//219 54//219 117//219
f 95//220 52//220 54//220
f 67//221 52//221 95//221
f 67//222 55//222 52//222
f 56//223 67//223 69//223
f 55//224 67//224 56//224
f 66//225 56//225 69//225
f 38//226 56//226 66//226
f 33//227 35//227 70//227
f 70//228 35//228 83//228
f 83//229 34//229 89//229
f 35//230 34//230 83//230
f 89//231 39//231 91//231
f 34//232 39//232 89//232
f 91//233 40//233 94//233
f 39//234 40//234 91//234
f 94//235 37//235 87//235
f 40//236 37//236 94//236
f 87//237 36//237 78//237
f 78//238 36//238 66//238
f 37//239 36//239 87//239
f 36//240 38//240 66//240
f 59//241 158//241 57//241
f 59//242 159//242 158//242
f 58//243 159//243 59//243
f 58//244 160//244 159//244
f 161//245 162//245 160//245
f 58//246 161//246 160//246
f 122//247 163//247 161//247
f 122//248 161//248 58//248
f 121//249 163//249 122//249
f 121//250 164//250 163//250
f 165//251 121//251 120//251
f 164//252 121//252 165//252
f 98//253 166//253 167//253
f 168//254 169//254 170//254
f 101//255 171//255 169//255
f 101//256 167//256 171//256
f 101//257 98//257 167//257
f 103//258 101//258 169//258
f 103//259 169//259 168//259
f 106//260 168//260 172//260
f 106//261 103//261 168//261
f 109//262 172//262 173//262
f 109//263 106//263 172//263
f 174//264 175//264 176//264
f 177//265 175//265 174//265
f 112//266 173//266 176//266
f 112//267 109//267 173//267
f 112//268 176//268 175//268
f 178//269 177//269 174//269
f 179//270 112//270 175//270
f 180//271 178//271 174//271
f 181//272 178//272 180//272
f 116//273 179//273 182//273
f 116//274 112//274 179//274
f 183//275 116//275 182//275
f 120//276 183//276 165//276
f 120//277 116//277 183//277
f 184//278 185//278 186//278
f 187//279 188//279 189//279
f 190//280 191//280 166//280
f 192//281 190//281 166//281
f 98//282 192//282 166//282
f 193//283 192//283 98//283
f 194//284 195//284 196//284
f 194//285 196//285 193//285
f 97//286 186//286 197//286
f 198//287 199//287 194//287
f 97//288 200//288 184//288
f 97//289 201//289 200//289
f 97//290 202//290 201//290
f 97//291 203//291 202//291
f 97//292 204//292 203//292
f 97//293 205//293 204//293
f 97//294 206//294 205//294
f 97//295 193//295 98//295
f 97//296 197//296 193//296
f 97//297 184//297 186//297
f 97//298 188//298 187//298
f 97//299 187//299 206//299
f 194//300 166//300 191//300
f 194//301 191//301 195//301
f 207//302 186//302 208//302
f 207//303 208//303 209//303
f 207//304 209//304 210//304
f 207//305 210//305 211//305
f 211//306 212//306 207//306
f 213//307 207//307 212//307
f 214//308 207//308 213//308
f 197//309 198//309 194//309
f 197//310 194//310 193//310
f 215//311 207//311 214//311
f 188//312 207//312 215//312
f 216//313 188//313 215//313
f 186//314 217//314 208//314
f 218//315 188//315 216//315
f 219//316 217//316 186//316
f 220//317 188//317 218//317
f 221//318 219//318 186//318
f 222//319 188//319 220//319
f 185//320 221//320 186//320
f 189//321 188//321 222//321
f 188//322 223//322 224//322
f 224//323 223//323 225//323
f 225//324 223//324 226//324
f 188//325 97//325 223//325
f 227//326 228//326 229//326
f 223//327 86//327 230//327
f 230//328 86//328 231//328
f 231//329 86//329 227//329
f 97//330 86//330 223//330
f 227//331 76//331 228//331
f 86//332 76//332 227//332
f 228//333 62//333 232//333
f 76//334 62//334 228//334
f 232//335 61//335 233//335
f 62//336 61//336 232//336
f 233//337 79//337 234//337
f 61//338 79//338 233//338
f 234//339 82//339 235//339
f 79//340 82//340 234//340
f 82//341 93//341 235//341
f 92//342 236//342 235//342
f 92//343 235//343 93//343
f 114//344 237//344 238//344
f 111//345 114//345 238//345
f 108//346 238//346 239//346
f 108//347 111//347 238//347
f 105//348 239//348 240//348
f 105//349 108//349 239//349
f 102//350 240//350 241//350
f 102//351 105//351 240//351
f 99//352 241//352 242//352
f 99//353 102//353 241//353
f 96//354 242//354 243//354
f 96//355 99//355 242//355
f 92//356 243//356 236//356
f 92//357 96//357 243//357
f 244//358 114//358 71//358
f 237//359 114//359 244//359
f 244//360 71//360 245//360
f 71//361 74//361 245//361
f 245//362 75//362 246//362
f 74//363 75//363 245//363
f 246//364 85//364 247//364
f 75//365 85//365 246//365
f 247//366 90//366 248//366
f 85//367 90//367 247//367
f 248//368 88//368 249//368
f 90//369 88//369 248//369
f 249//370 81//370 250//370
f 88//371 81//371 249//371
f 250//372 68//372 251//372
f 81//373 68//373 250//373
f 180//374 252//374 181//374
f 253//375 251//375 254//375
f 252//376 251//376 253//376
f 255//377 68//377 65//377
f 254//378 68//378 255//378
f 251//379 68//379 254//379
f 180//380 251//380 252//380
f 256//381 65//381 64//381
f 255//382 65//382 256//382
f 257//383 256//383 258//383
f 256//384 63//384 258//384
f 256//385 64//385 63//385
f 258//386 259//386 260//386
f 259//387 63//387 73//387
f 258//388 63//388 259//388
f 261//389 262//389 155//389
f 262//390 77//390 155//390
f 259//391 73//391 262//391
f 262//392 73//392 77//392
f 138//393 144//393 196//393
f 195//394 138//394 196//394
f 191//395 125//395 138//395
f 191//396 138//396 195//396
f 193//397 144//397 129//397
f 193//398 196//398 144//398
f 124//399 125//399 190//399
f 125//400 191//400 190//400
f 129//401 192//401 193//401
f 123//402 192//402 129//402
f 124//403 192//403 123//403
f 190//404 192//404 124//404
f 204//405 205//405 153//405
f 153//406 205//406 154//406
f 205//407 206//407 154//407
f 154//408 206//408 131//408
f 127//409 214//409 126//409
f 206//410 187//410 131//410
f 215//411 214//411 127//411
f 131//412 187//412 130//412
f 126//413 213//413 128//413
f 187//414 189//414 130//414
f 214//415 213//415 126//415
f 130//416 189//416 132//416
f 128//417 212//417 137//417
f 189//418 222//418 132//418
f 132//419 222//419 133//419
f 213//420 212//420 128//420
f 137//421 211//421 151//421
f 222//422 220//422 133//422
f 133//423 220//423 134//423
f 212//424 211//424 137//424
f 151//425 210//425 149//425
f 134//426 218//426 135//426
f 211//427 210//427 151//427
f 220//428 218//428 134//428
f 135//429 216//429 136//429
f 149//430 209//430 147//430
f 218//431 216//431 135//431
f 136//432 215//432 127//432
f 210//433 209//433 149//433
f 216//434 215//434 136//434
f 147//435 208//435 145//435
f 209//436 208//436 147//436
f 145//437 217//437 142//437
f 208//438 217//438 145//438
f 142//439 219//439 140//439
f 217//440 219//440 142//440
f 140//441 221//441 139//441
f 219//442 221//442 140//442
f 139//443 185//443 141//443
f 221//444 185//444 139//444
f 185//445 184//445 141//445
f 141//446 184//446 143//446
f 184//447 200//447 143//447
f 143//448 200//448 146//448
f 200//449 201//449 146//449
f 146//450 201//450 148//450
f 201//451 202//451 148//451
f 148//452 202//452 150//452
f 202//453 203//453 150//453
f 150//454 203//454 152//454
f 203//455 204//455 152//455
f 152//456 204//456 153//456
f 159//457 263//457 156//457
f 159//458 156//458 158//458
f 264//459 263//459 159//459
f 157//460 156//460 263//460
f 157//461 263//461 265//461
f 157//462 261//462 155//462
f 265//463 261//463 157//463
f 264//464 159//464 160//464
f 264//465 160//465 162//465
f 266//466 162//466 267//466
f 263//467 162//467 266//467
f 263//468 264//468 162//468
f 162//469 161//469 267//469
f 268//470 265//470 263//470
f 266//471 268//471 263//471
f 182//472 267//472 183//472
f 179//473 267//473 182//473
f 267//474 165//474 183//474
f 164//475 161//475 163//475
f 165//476 161//476 164//476
f 267//477 161//477 165//477
f 179//478 266//478 267//478
f 179//479 175//479 266//479
f 266//480 177//480 178//480
f 266//481 175//481 177//481
f 181//482 266//482 178//482
f 268//483 181//483 252//483
f 268//484 266//484 181//484
f 269//485 229//485 228//485
f 269//486 228//486 232//486
f 269//487 232//487 233//487
f 269//488 233//488 234//488
f 269//489 234//489 235//489
f 270//490 269//490 235//490
f 199//491 198//491 270//491
f 271//492 199//492 270//492
f 272//493 168//493 170//493
f 272//494 172//494 168//494
f 272//495 173//495 172//495
f 176//496 173//496 272//496
f 174//497 176//497 272//497
f 180//498 174//498 272//498
f 236//499 270//499 235//499
f 236//500 271//500 270//500
f 242//501 236//501 243//501
f 241//502 236//502 242//502
f 239//503 241//503 240//503
f 239//504 236//504 241//504
f 237//505 239//505 238//505
f 237//506 236//506 239//506
f 251//507 272//507 271//507
f 251//508 271//508 236//508
f 251//509 180//509 272//509
f 244//510 236//510 237//510
f 244//511 251//511 236//511
f 246//512 244//512 245//512
f 249//513 244//513 246//513
f 249//514 250//514 251//514
f 249//515 251//515 244//515
f 248//516 246//516 247//516
f 248//517 249//517 246//517
f 273//518 272//518 170//518
f 273//519 170//519 169//519
f 166//520 194//520 274//520
f 273//521 169//521 171//521
f 273//522 171//522 167//522
f 273//523 167//523 166//523
f 273//524 166//524 274//524
f 275//525 188//525 224//525
f 275//526 224//526 225//526
f 275//527 225//527 226//527
f 276//528 207//528 188//528
f 276//529 188//529 275//529
f 276//530 277//530 207//530
f 207//531 277//531 186//531
f 271//532 274//532 199//532
f 199//533 274//533 194//533
f 278//534 223//534 230//534
f 278//535 230//535 231//535
f 278//536 231//536 227//536
f 279//537 278//537 227//537
f 277//538 197//538 186//538
f 277//539 278//539 279//539
f 280//540 197//540 277//540
f 280//541 277//541 279//541
f 197//542 270//542 198//542
f 280//543 270//543 197//543
f 269//544 279//544 229//544
f 229//545 279//545 227//545
f 223//546 275//546 226//546
f 278//547 275//547 223//547
f 257//548 255//548 256//548
f 254//549 255//549 257//549
f 253//550 260//550 265//550
f 265//551 260//551 261//551
f 253//552 257//552 260//552
f 253//553 254//553 257//553
f 268//554 253//554 265//554
f 252//555 253//555 268//555
f 258//556 260//556 257//556
f 261//557 259//557 262//557
f 260//558 259//558 261//558
f 274//559 271//559 272//559
f 274//560 272//560 273//560
f 279//561 269//561 270//561
f 279//562 270//562 280//562
f 275//563 278//563 276//563
f 276//564 278//564 277//564
